q_0,q_1,q_2,q_3,q_4
0.819672,0.0130031,-0.0012539,0.179776
0.692351,0.021973,-0.00161854,0.305958
0.597572,0.029536,-0.00265092,0.401288
0.524482,0.035123,-0.00366834,0.473922
0.466267,0.0395382,-0.00462307,0.532125
0.418917,0.0431815,-0.00538601,0.579394
0.379654,0.046334,-0.00550997,0.618361
0.346415,0.0483814,-0.0061379,0.651769
0.318188,0.0507157,-0.00597229,0.679848
0.293697,0.0524001,-0.00612633,0.704344
0.272366,0.05397,-0.00627514,0.725559
0.253476,0.0552992,-0.00661875,0.744437
0.236792,0.0567741,-0.00685279,0.760894
0.221647,0.0578573,-0.00726846,0.776007
0.208253,0.0588792,-0.00750301,0.789305
0.19606,0.05965,-0.00799149,0.801551
0.185243,0.0604267,-0.00797495,0.812315
0.175136,0.0612737,-0.00830392,0.822378
0.166031,0.0619235,-0.0081635,0.831482
0.157651,0.0629115,-0.00817013,0.839941
0.150201,0.0635284,-0.0086328,0.84754
0.143222,0.0636917,-0.00886225,0.854717
0.13692,0.0640942,-0.00913958,0.86109
0.13062,0.0644961,-0.00962517,0.867334
0.124995,0.0646554,-0.0096945,0.873014
0.119654,0.0647136,-0.00980128,0.878358
0.114636,0.0650306,-0.00991446,0.883351
0.109943,0.0593755,-0.00902875,0.806145
0.105427,0.054234,-0.00840264,0.733723
0.101273,0.0547284,-0.00834788,0.744065
0.0971988,0.0553142,-0.008805,0.75395
0.0936207,0.0559228,-0.00889016,0.763168
0.0902765,0.0568933,-0.00917909,0.771841
0.0871502,0.0576518,-0.00931296,0.780033
0.0841355,0.0581929,-0.00961074,0.787871
0.0814561,0.0587264,-0.00952023,0.795161
0.0785693,0.0594062,-0.00965204,0.802193
0.075843,0.059988,-0.00977473,0.808842
0.0730861,0.0571478,-0.00890069,0.747908
0.0712224,0.0530916,-0.00791702,0.689571
0.0690114,0.0486799,-0.00716934,0.634153
0.067027,0.0499875,-0.00771413,0.645807
0.0649073,0.0510982,-0.00834517,0.657053
0.0629859,0.0517045,-0.00850487,0.667778
0.0610037,0.0523702,-0.00862574,0.678098
0.0591887,0.0529975,-0.00855197,0.688002
0.0576713,0.0536341,-0.00860877,0.697363
0.0558971,0.0543764,-0.00883438,0.706428
0.0542469,0.0550478,-0.00887251,0.715111
0.0526259,0.0556202,-0.009246,0.723437
0.0509304,0.0561512,-0.00926537,0.731469
0.0492634,0.0567104,-0.00945597,0.739243
0.0479853,0.0569837,-0.00932247,0.746627
0.0464695,0.0576071,-0.00965641,0.753805
0.0452911,0.0582945,-0.00988462,0.760604
0.0438071,0.054728,-0.00963343,0.711396
0.0425698,0.0551816,-0.00971906,0.719375
0.04162,0.0557818,-0.00980493,0.727013
0.0407471,0.0563661,-0.00980074,0.734356
0.0397544,0.0572786,-0.00979702,0.741425
0.0386404,0.0577821,-0.00965496,0.748259
0.0371403,0.0583228,-0.00982017,0.754965
0.036015,0.0586039,-0.00977818,0.761373
0.0345913,0.0591634,-0.010165,0.767615
0.0333975,0.0594279,-0.0101425,0.773633
0.0320988,0.059816,-0.0104615,0.779487
0.0310859,0.0603024,-0.0103546,0.785139
0.0303995,0.0608841,-0.0103957,0.790551
0.0296162,0.0612746,-0.0106831,0.795828
0.028962,0.0617232,-0.0105937,0.800928
0.0283658,0.0585329,-0.0102778,0.755528
0.027703,0.0589133,-0.0103088,0.761581
0.0269572,0.0593209,-0.0105424,0.767457
0.0262348,0.0595013,-0.0107712,0.773156
0.0253435,0.0598599,-0.0111421,0.778705
0.0246473,0.060034,-0.011321,0.784091
0.0240523,0.060507,-0.0115093,0.789281
0.0233919,0.0607082,-0.0113962,0.794346
0.0226649,0.0610904,-0.0113135,0.799265
0.0220539,0.0613563,-0.0111547,0.804036
0.0213707,0.0583758,-0.01074,0.760822
0.0210195,0.0552674,-0.0100825,0.718806
0.0205133,0.055911,-0.0101588,0.72543
0.0202776,0.0561809,-0.010037,0.731841
0.0195745,0.0564473,-0.00991252,0.738123
0.018922,0.0543349,-0.00921125,0.744211
0.0172252,0.0548585,-0.00955879,0.75011
0.0148037,0.0531002,-0.00994007,0.709308
0.011636,0.0527761,-0.00931262,0.716095
0.00813715,0.052693,-0.00736914,0.722709
0.00450624,0.0527997,-0.00346038,0.729131
0.000886058,0.0531709,0.00188139,0.735333
-0.00238861,0.0536174,0.00822803,0.741278
-0.0059259,0.0553535,0.016169,0.746864
-0.00914332,0.059616,0.0257483,0.751938
-0.0115114,0.0645256,0.0355156,0.756702
-0.0133169,0.0697285,0.0454427,0.761061
-0.0144718,0.0724626,0.0561057,0.765326
-0.0148531,0.0753984,0.0675443,0.769183
-0.0152049,0.0776629,0.080394,0.772467
-0.0155822,0.0812572,0.0931323,0.775419
-0.0158502,0.0812273,0.106748,0.77828
-0.0157161,0.0838041,0.121945,0.780091
-0.0153659,0.0843621,0.137671,0.781674
-0.0150618,0.0858755,0.153525,0.782843
-0.0145108,0.0887295,0.169711,0.783185
-0.0138027,0.090624,0.185222,0.783396
-0.0129757,0.0931792,0.200892,0.783043
-0.0119069,0.0917559,0.195553,0.744057
-0.0107103,0.0954847,0.211343,0.743904
-0.00947463,0.0973989,0.228355,0.74282
-0.00858988,0.0979399,0.245139,0.741471
-0.00813243,0.0930536,0.235921,0.705168
-0.00758833,0.0883149,0.225294,0.670496
-0.00786845,0.0828923,0.213494,0.637367
-0.00822865,0.0782138,0.199804,0.60638
-0.00881856,0.0733353,0.184985,0.576545
-0.00922258,0.0662186,0.169373,0.548242
-0.00841116,0.059817,0.153251,0.520643
-0.00575594,0.0522958,0.136609,0.493986
-0.000863243,0.0449706,0.119768,0.467606
0.00544845,0.0401614,0.102037,0.442041
0.0126613,0.0339883,0.112043,0.449362
0.0208206,0.0362225,0.0970345,0.423435
0.0294324,0.0382741,0.0808927,0.39868
0.0371497,0.0401971,0.0661322,0.373669
0.0447891,0.0437741,0.0549445,0.348342
0.0532851,0.0264699,0.0594203,0.356783
0.0616452,0.0337752,0.0518452,0.332562
0.0685352,0.0425733,0.0483455,0.308676
0.0736592,0.0518376,0.045434,0.285852
0.0767692,0.0620713,0.0432028,0.263814
0.0784381,0.0727171,0.0405505,0.242365
0.0785444,0.0843132,0.0386139,0.221755
0.0769199,0.097047,0.0354214,0.202249
0.0740338,0.109533,0.0295455,0.182473
0.0692729,0.0954804,0.0322494,0.194193
0.0637387,0.0833945,0.0349637,0.206504
0.0574904,0.0727887,0.0388972,0.218543
0.0497182,0.0836418,0.0249464,0.198984
0.0412792,0.0906989,0.00922401,0.179507
0.0406384,0.0911578,-0.00109067,0.156098
0.0368444,0.0970641,0.00669765,0.169867
0.0318244,0.10626,0.0133325,0.18205
0.0261515,0.0959469,0.00286081,0.161448
0.02102,0.0831467,-0.00565246,0.142258
0.0165286,0.0699307,-0.0132625,0.123682
0.0131759,0.0816009,-0.0108668,0.136935
0.0103226,0.0940062,-0.00827012,0.148867
0.0079783,0.106192,-0.0056892,0.160342
0.00584394,0.118267,-0.00292993,0.171383
0.00374739,0.129771,-0.000418096,0.182563
0.00187059,0.141023,0.00220115,0.193533
0.000737637,0.152078,0.00389869,0.204445
0.000425231,0.163128,0.00464697,0.215103
0.00230168,0.173319,0.00673616,0.225894
0.00596046,0.182598,0.0107803,0.236657
0.0113797,0.164643,0.00584892,0.218049
0.0171661,0.148124,0.00124286,0.199169
0.0225754,0.132202,-0.00366669,0.180805
0.0276394,0.128777,0.00750365,0.197628
0.0331217,0.119276,0.019004,0.21396
0.0378132,0.109723,0.0280502,0.230218
0.0416485,0.099838,0.0370104,0.245447
0.0445415,0.0908927,0.0455653,0.259694
0.04646,0.0844068,0.0534231,0.273363
0.0474651,0.0786643,0.0603986,0.286668
0.0474076,0.0735618,0.0655559,0.300077
0.0465714,0.0693421,0.0694495,0.313709
0.0447642,0.0676018,0.0594179,0.28881
0.0427883,0.0661867,0.0493115,0.264346
0.0405389,0.0686467,0.0520316,0.27846
0.038316,0.0713651,0.0547432,0.29223
0.0362531,0.0759464,0.0610313,0.304395
0.03404,0.0823995,0.0671915,0.316144
0.0326889,0.0887865,0.0849196,0.323084
0.0311814,0.0901287,0.0869979,0.29396
0.029087,0.0883686,0.0800673,0.269387
0.0272136,0.0880889,0.0685494,0.247695
0.0239723,0.0881397,0.0553669,0.227511
0.0202806,0.0817511,0.0428308,0.209166
0.0168022,0.0764051,0.0295597,0.19183
0.0134746,0.0670695,0.0191596,0.175541
0.0110132,0.0598899,0.00678421,0.160238
0.00867959,0.0492428,-0.00488739,0.14659
0.00695455,0.0368713,-0.0158507,0.133651
0.00581861,0.0242669,-0.0270295,0.121461
0.00516916,0.0114756,-0.0383492,0.109791
0.00496008,-0.00183991,-0.0493542,0.097911
0.00521018,-0.014748,-0.0609972,0.0858801
0.00568147,-0.0280711,-0.0716855,0.0729719
0.00609778,-0.0376634,-0.0852603,0.0591289
0.00647133,-0.0466294,-0.0967933,0.0427003
0.00632703,-0.0496128,-0.108906,0.0239675
0.00634348,-0.0443557,-0.0972287,0.0365117
0.00705311,-0.0435583,-0.106305,0.0149147
0.00765362,-0.0430362,-0.113329,-0.00641758
0.00766727,-0.0427484,-0.119187,-0.0266752
0.00762915,-0.0415615,-0.123346,-0.047373
0.00753654,-0.0385968,-0.113857,-0.0300355
0.0071953,-0.0387895,-0.116478,-0.050445
0.00693443,-0.0358496,-0.107396,-0.0322811
0.00649886,-0.0340473,-0.0993821,-0.0135851
0.00605889,-0.0309563,-0.0919615,0.00497624
0.0056061,-0.0277154,-0.0843543,0.023253
0.00525834,-0.0253468,-0.076581,0.0414165
0.00509423,-0.023273,-0.0690522,0.0593575
0.00489891,-0.0209517,-0.0612881,0.0769716
0.00470824,-0.0183945,-0.0539224,0.0944331
0.00427846,-0.0160619,-0.0453576,0.111148
0.00375781,-0.0134081,-0.0379495,0.127969
0.00308991,-0.0103817,-0.0291165,0.143954
0.00229619,-0.00701254,-0.0204395,0.159683
0.00141347,-0.00281453,-0.0113943,0.174852
0.000290484,0.00284359,-0.00209531,0.189235
-0.00117903,0.00821756,0.00834876,0.202747
-0.00278913,0.0141194,0.0186447,0.215725
-0.00438231,0.0211278,0.0287635,0.228111
-0.00591204,0.0293381,0.0392869,0.239299
-0.00769805,0.0378173,0.0498657,0.249825
-0.00953045,0.0475841,0.060407,0.259121
-0.0112206,0.0579534,0.0703658,0.268042
-0.0127158,0.0675776,0.0802118,0.276638
-0.0142664,0.0567789,0.0722003,0.25547
-0.0156636,0.0458552,0.0635247,0.23518
-0.016784,0.0354815,0.0547021,0.215216
-0.0176562,0.0250784,0.0455747,0.195967
-0.0180983,0.0145252,0.0372381,0.177018
-0.0180841,0.0242455,0.0458981,0.188191
-0.0177375,0.0334175,0.0550481,0.198969
-0.0172605,0.0419543,0.0644425,0.209548
-0.0168185,0.0310768,0.0552864,0.190828
-0.0165491,0.0184004,0.0479592,0.173346
-0.0163459,0.00545867,0.0393768,0.156391
-0.0158923,-0.0074935,0.0324711,0.139474
-0.0149287,-0.0201794,0.0255945,0.123471
-0.0137417,-0.0333759,0.0258064,0.107408
-0.0105512,-0.0180447,0.0216178,0.119318
-0.0060524,-0.0312932,0.0322493,0.12653
-0.000977263,-0.0178204,0.0266881,0.110806
0.00329243,-0.00573501,0.0205066,0.0957245
0.00552944,-0.017878,0.0267778,0.108341
0.00617192,-0.00753039,0.0152343,0.0929157
0.00595855,0.00137082,0.00312556,0.0776768
0.00538613,0.00793558,-0.0100767,0.0628953
0.00484428,0.014741,-0.0228235,0.0483856
0.00445619,0.0195852,-0.0360289,0.0340952
0.00415074,0.0252491,-0.0483846,0.0198022
0.00395721,0.0306603,-0.0606782,0.00589319
0.00388736,0.0351574,-0.0730419,-0.00781778
0.00402066,0.0295306,-0.0586023,0.0061339
0.00401682,0.0248461,-0.0448021,0.0202808
0.00382843,0.0219149,-0.0312265,0.0343985
0.00341689,0.0202555,-0.0179947,0.0484154
0.00284401,0.0192101,-0.00473947,0.061957
0.00219132,0.01896,-0.0180609,0.0458744
0.00164808,0.0177565,-0.0313241,0.0303426
0.00124445,0.0154355,-0.0440563,0.0149882
0.000966235,0.0115237,-0.0559259,-0.000278388
0.000785472,0.00664312,-0.0673012,-0.0151846
0.000634632,0.0110788,-0.0544876,0.000113498
0.000373521,0.0068962,-0.0665014,-0.0144317
0.000235621,0.0127977,-0.0540763,0.000736834
-1.93955e-05,0.0178188,-0.0414273,0.0156204
-0.000221293,0.0233092,-0.0291972,0.0301767
-0.000395049,0.0176648,-0.0407333,0.0148244
-0.000550709,0.0123294,-0.0526807,0.000198843
-0.000662953,0.00315385,-0.0628969,-0.0134879
-0.000817892,0.0157174,-0.0642323,0.00143432
-0.00139285,0.0279827,-0.0661208,0.0166008
-0.000683633,0.0156252,-0.0527109,0.0256234
0.000959681,0.0071247,-0.0391259,0.0387911
0.00193166,0.000630432,-0.0247778,0.0510801
0.00220026,-0.00132819,-0.0114923,0.0645914
0.00220657,-0.00280917,0.00205282,0.0776562
0.00185518,-0.00354448,-0.0116946,0.0617182
0.00124882,-0.00677477,-0.0248277,0.0460553
0.000634305,-0.000503611,-0.0132544,0.059973
9.95982e-05,0.00672059,-0.00222585,0.0734808
-0.000306734,0.0133532,0.00881577,0.0868329
-0.000615346,0.0199038,0.019334,0.100093
-0.000791957,0.0254722,0.0300868,0.113069
-0.000879827,0.0306563,0.0402958,0.126176
-0.000905138,0.0356403,0.0504545,0.138936
-0.000958804,0.0405637,0.0602578,0.151581
-0.0010602,0.0461723,0.0697071,0.163848
-0.00117967,0.0526264,0.0785729,0.175771
-0.00136892,0.04158,0.0684097,0.157957
-0.0014595,0.0536915,0.0624906,0.169144
0.000401815,0.0663147,0.0576949,0.179348
0.00346537,0.0580013,0.0746475,0.186354
0.00451587,0.0425957,0.0856315,0.196635
0.00341024,0.0441704,0.0737757,0.178784
0.00345757,0.0450501,0.0601299,0.160771
0.00277016,0.0418979,0.0461385,0.142587
0.00135172,0.0336299,0.0336032,0.125721
0.000231325,0.022657,0.0266914,0.108225
-0.000300265,0.030929,0.0361424,0.120688
-0.000755156,0.0255585,0.0232459,0.103522
-0.00114669,0.031342,0.0337779,0.11651
-0.00139459,0.0362141,0.0446372,0.129144
-0.0016498,0.0307248,0.0318801,0.1117
-0.00185174,0.024456,0.0196163,0.0947436
-0.00203651,0.018088,0.00731692,0.078457
-0.00221791,0.010812,-0.00425705,0.0625728
-0.00233986,0.00209467,-0.0147959,0.0472499
-0.00242905,-0.00902093,-0.0236009,0.0329465
-0.00245547,0.00625098,-0.0217462,0.0448189
-0.00220013,0.0200408,-0.0248187,0.057433
-0.00113499,0.0325502,-0.0229759,0.071183
0.000278481,0.0392488,-0.033738,0.0569024
0.00110411,0.0338902,-0.0183942,0.0696281
0.00185618,0.0377439,-0.0279385,0.0525468
0.0024165,0.0334242,-0.0155729,0.0672672
0.00239832,0.0307822,-0.00267145,0.0810925
0.00182788,0.0286127,-0.0158103,0.0650782
0.00102972,0.0230779,-0.0272866,0.0488966
0.000429058,0.0167933,-0.0385853,0.0332726
-6.04688e-05,0.0101308,-0.0495932,0.0180293
-0.000499166,0.00286852,-0.0606389,0.00352657
-0.000927806,-0.00483707,-0.0713197,-0.0105967
-0.00140152,-0.0141926,-0.0809683,-0.024065
-0.00220078,-0.0223989,-0.089943,-0.0382365
-0.00333274,-0.0303662,-0.0984217,-0.0524663
-0.00483353,-0.0411984,-0.10477,-0.0657604
-0.00626849,-0.035251,-0.090756,-0.0500088
-0.00722642,-0.0273804,-0.0784963,-0.0345273
-0.00796429,-0.0195017,-0.0670508,-0.0191751
-0.00823591,-0.0123895,-0.0559299,-0.00368913
-0.0084349,-0.00616858,-0.0449973,0.0119809
-0.00834704,8.05673e-05,-0.0355741,0.0280144
-0.00806588,0.00583832,-0.026451,0.0439019
-0.00777946,0.0106218,-0.0171912,0.059703
-0.00748697,0.0148983,-0.00778674,0.0751928
-0.00716932,0.0185938,0.00167416,0.0904246
-0.00687851,0.0216166,0.0110443,0.105436
-0.00647473,0.0244883,0.0188465,0.120888
-0.00602352,0.0284292,0.0260076,0.135916
-0.00559848,0.0305845,0.0330765,0.150902
-0.00532572,0.0316585,0.0396685,0.165908
-0.00477454,0.0321042,0.0452765,0.181179
-0.00398857,0.0325625,0.0499288,0.196466
-0.0033561,0.0339929,0.0532276,0.211651
-0.00267053,0.0368652,0.0562178,0.226289
-0.00163754,0.0387249,0.0586561,0.240979
-0.000778519,0.0406058,0.0606277,0.255465
-1.68403e-05,0.0413418,0.0613963,0.270136
0.000682776,0.0414645,0.0621075,0.284572
0.00127274,0.0417932,0.062622,0.298721
0.00203545,0.042155,0.0633574,0.312501
0.00262252,0.0434425,0.0644261,0.325805
0.00315804,0.0442078,0.0655672,0.338875
0.0038086,0.045994,0.065964,0.351689
0.00468124,0.047998,0.0655497,0.364317
0.00553786,0.0473502,0.0635673,0.377244
0.00652963,0.0471167,0.0579742,0.35067
0.00672055,0.0462171,0.0552636,0.36404
0.00691584,0.0458803,0.0533651,0.376932
0.00700535,0.0450555,0.0511261,0.389581
0.00679204,0.0455988,0.05051,0.401638
0.00680204,0.0437554,0.0465236,0.374514
0.00623903,0.0436983,0.0458795,0.386898
0.00503712,0.0428289,0.0424975,0.35985
0.00349865,0.0410651,0.0430563,0.372402
0.00143093,0.0421962,0.044028,0.38455
-0.00092546,0.0409345,0.0398576,0.357662
-0.0034641,0.0413045,0.0399856,0.37026
-0.00635583,0.0418051,0.0404946,0.382521
-0.0096979,0.0431815,0.0400363,0.394523
-0.013252,0.0444183,0.0388684,0.406319
-0.0164832,0.0455446,0.037518,0.417875
-0.0195476,0.0466778,0.0357924,0.42919
-0.0220493,0.0479775,0.0331011,0.440302
-0.0235632,0.0450672,0.0307468,0.412352
-0.0238691,0.0403868,0.0279405,0.4245
-0.0235086,0.0364068,0.0264245,0.396874
-0.0229714,0.0333926,0.0255454,0.369658
-0.0224865,0.0333586,0.0245129,0.382063
-0.0219229,0.0314776,0.0240673,0.355016
-0.0213998,0.0296147,0.0237515,0.328493
-0.0209979,0.0301145,0.0230746,0.341641
-0.0205284,0.0305634,0.0224086,0.354535
-0.0201143,0.0291556,0.0220681,0.327986
-0.0197179,0.0296062,0.0214284,0.34115
-0.0194252,0.0280914,0.0210786,0.314868
-0.0190005,0.0265858,0.0208579,0.289105
-0.0186784,0.0270598,0.0201984,0.303028
-0.0183475,0.0255835,0.0199566,0.27749
-0.0180464,0.0240138,0.0197218,0.252462
-0.0176842,0.0225477,0.019534,0.22792
-0.0174007,0.0212016,0.0193384,0.203853
-0.0170656,0.0218615,0.0187484,0.21944
-0.016766,0.022528,0.0181841,0.234721
-0.0164006,0.0211048,0.0179643,0.210533
-0.016048,0.0193291,0.019147,0.186908
-0.016275,0.0193317,0.0185525,0.163515
-0.0162436,0.0212041,0.0177827,0.179775
-0.0160517,0.0225503,0.0172362,0.195772
-0.0158597,0.0238494,0.0166369,0.21146
-0.0156043,0.022189,0.0165261,0.187729
-0.0152626,0.0232187,0.0160092,0.203611
-0.0149518,0.024277,0.0153985,0.219177
-0.0146613,0.0252152,0.0148684,0.234445
-0.0143703,0.0261503,0.0143208,0.249412
-0.0140687,0.0269717,0.0138006,0.264092
-0.013813,0.0279679,0.013215,0.27847
-0.0134868,0.026037,0.0131992,0.253448
-0.0131296,0.0269345,0.0126839,0.268044
-0.0127191,0.0249135,0.0127497,0.243239
-0.0125336,0.0258433,0.0122162,0.258029
-0.0123136,0.0266898,0.011767,0.272537
-0.0120636,0.0274781,0.0112299,0.286766
-0.0118023,0.0282676,0.0107712,0.300713
-0.0115366,0.029299,0.0102168,0.314366
-0.0112818,0.030055,0.00985887,0.32777
-0.0110696,0.0308656,0.00945912,0.340906
-0.0107872,0.0317266,0.00912721,0.35378
-0.0105627,0.0325729,0.00865804,0.3664
-0.0103843,0.0306187,0.00855962,0.339651
-0.0101129,0.0313689,0.00822094,0.352561
-0.00995073,0.0321448,0.00765434,0.36521
-0.00971268,0.0329696,0.00726335,0.377609
-0.00948622,0.0311062,0.00720784,0.350632
-0.0092149,0.0318635,0.00684735,0.363324
-0.00892343,0.0326395,0.00646126,0.375766
-0.00860024,0.0333166,0.00619956,0.387969
-0.00840853,0.0341281,0.00571557,0.399917
-0.00823781,0.03485,0.00539414,0.411635
-0.00814596,0.0357437,0.00511474,0.423109
-0.00799855,0.0336014,0.00526132,0.395256
-0.00794308,0.0344257,0.00490186,0.407058
-0.00782206,0.0350112,0.00448926,0.418647
-0.00773308,0.0356313,0.00409247,0.430004
-0.00749196,0.0361672,0.00381032,0.441147
-0.00742706,0.0368428,0.00331958,0.452056
-0.0071754,0.037624,0.00296475,0.462745
-0.00696842,0.0383131,0.00255966,0.473229
-0.00682482,0.0388387,0.00231608,0.483519
-0.00651896,0.0394965,0.00210497,0.493599
-0.00641971,0.0373178,0.00207684,0.46436
-0.0061897,0.0380294,0.00178046,0.474813
-0.00615351,0.0387921,0.00139323,0.485053
-0.00598134,0.0396217,0.00102972,0.495086
-0.00592713,0.0403493,0.000645584,0.504928
-0.00577043,0.0409834,0.000262594,0.514584
-0.00578782,0.0414825,-1.57599e-05,0.524057
-0.00571843,0.0417504,-0.000264468,0.533362
-0.00563745,0.0423262,-0.000525118,0.542463
-0.00545368,0.0428118,-0.000624457,0.551393
-0.00541423,0.0434163,-0.000731903,0.560135
-0.00532962,0.043945,-0.000939078,0.568711
-0.00526395,0.0445905,-0.00125728,0.577108
-0.00511188,0.0450541,-0.00145588,0.585355
-0.00497172,0.0456772,-0.0017214,0.593427
-0.00465444,0.0466727,-0.00190369,0.60131
-0.0041585,0.0444685,-0.00138131,0.569963
-0.0038632,0.0433744,-0.00324652,0.539306
-0.00521643,0.040263,-0.000533069,0.548072
-0.00937205,0.0416362,-0.000156969,0.55676
-0.0140091,0.0375634,0.0014048,0.526539
-0.016996,0.0351284,0.00308963,0.496733
-0.0183775,0.0342064,0.00462886,0.467417
-0.0185385,0.0331729,0.00492948,0.438624
-0.0183009,0.0350312,0.00443142,0.449474
-0.0177304,0.0357715,0.00484404,0.460222
-0.017332,0.0347322,0.00686066,0.470873
-0.0169147,0.0339641,0.0117948,0.481235
-0.0154446,0.0352047,0.0193267,0.491127
-0.0133233,0.0334306,0.0305512,0.500642
-0.0112621,0.0318158,0.0368152,0.470992
-0.0101477,0.0331389,0.0406214,0.441975
-0.00968602,0.0373572,0.0562432,0.450478
-0.00957809,0.0451775,0.0725789,0.457781
-0.00978479,0.0498426,0.0899476,0.464561
-0.0107412,0.0572374,0.108395,0.469562
-0.0109083,0.063288,0.126924,0.47392
-0.0105188,0.0685812,0.143157,0.478495
-0.0100795,0.0730671,0.157468,0.483044
-0.00926226,0.0772622,0.169404,0.488006
-0.00886265,0.0817777,0.18042,0.492747
-0.00900173,0.0848153,0.1915,0.497549
-0.00909278,0.0886771,0.201999,0.502177
-0.00988086,0.0904871,0.21259,0.506711
-0.0119485,0.0874409,0.222439,0.511338
-0.0171725,0.0873782,0.207244,0.485083
-0.0260464,0.0833401,0.191545,0.460265
-0.0358433,0.0749816,0.179563,0.436689
-0.0441744,0.0948724,0.181228,0.438629
-0.0499048,0.0842424,0.172332,0.41543
-0.0535825,0.0712768,0.16484,0.392269
-0.0540168,0.0583708,0.15766,0.369472
-0.0520019,0.0450876,0.148457,0.348731
-0.0490689,0.0320468,0.13776,0.328843
-0.0452283,0.0188452,0.125326,0.309709
-0.0405072,0.0242217,0.129087,0.32042
-0.0347578,0.0238076,0.132872,0.332814
-0.0283027,0.0145587,0.116069,0.31229
-0.0216548,0.00812344,0.100615,0.291319
-0.0159937,-0.00115508,0.104885,0.304245
-0.0119697,-0.00904689,0.109857,0.316185
-0.00947544,-0.0150785,0.1149,0.327745
-0.00759925,-0.0186561,0.121057,0.338689
-0.00657347,-0.0188717,0.108099,0.315289
-0.00605442,-0.019953,0.115381,0.326195
-0.00609408,-0.0202374,0.122667,0.33685
-0.00641024,-0.0196946,0.110276,0.31331
-0.00714067,-0.018271,0.0985269,0.2901
-0.00738476,-0.0178076,0.0868072,0.267703
-0.00726609,-0.0177791,0.0767131,0.245161
-0.00696863,-0.017694,0.0659973,0.223687
-0.00723034,-0.0172127,0.0556728,0.202287
-0.0078154,-0.0138869,0.0654055,0.214781
-0.00844307,-0.0142584,0.0541525,0.193948
-0.00879644,-0.00868634,0.0625522,0.207152
-0.00855756,-0.00304846,0.0712415,0.220038
-0.00804607,0.00222086,0.0834037,0.230681
-0.00802906,0.00100768,0.0738756,0.208961
-0.0085356,0.00713525,0.0869306,0.21896
-0.0090719,0.00139746,0.0736277,0.20295
-0.00986058,-0.00276952,0.0598504,0.187308
-0.0106933,-0.00964727,0.0472115,0.172786
-0.0102171,-0.0168055,0.0342719,0.159237
-0.00966851,-0.0262381,0.0224462,0.146184
-0.00949849,-0.0344254,0.00879173,0.13483
-0.009273,-0.0438477,-0.00528942,0.124736
-0.00923275,-0.0525772,-0.0202207,0.114008
-0.00952585,-0.0608067,-0.0350756,0.101428
-0.0101835,-0.0667876,-0.0499342,0.0862274
-0.0112861,-0.0723263,-0.0622365,0.0685274
-0.0126158,-0.075803,-0.0760373,0.0522167
-0.0135989,-0.0776136,-0.0881397,0.0343894
-0.0145543,-0.0776137,-0.0988976,0.0163412
-0.015449,-0.0765211,-0.108944,-0.00150723
-0.0166862,-0.0729327,-0.11707,-0.0200398
-0.0183968,-0.0722418,-0.106506,-0.00413717
-0.0197689,-0.0709992,-0.095503,0.0103693
-0.0210154,-0.0689509,-0.101349,-0.00996684
-0.0217409,-0.0640851,-0.0914944,0.00658443
-0.0222665,-0.063208,-0.0955707,-0.0134874
-0.0228594,-0.0601795,-0.0872356,0.00411904
-0.0232536,-0.0574841,-0.0797828,0.0218165
-0.0233936,-0.0543335,-0.0727728,0.039366
-0.0232269,-0.0542636,-0.0777368,0.0195144
-0.0228711,-0.0516,-0.0704721,0.0375374
-0.0225501,-0.0514592,-0.0752051,0.0178847
-0.0221909,-0.0511526,-0.0797055,-0.00136298
-0.0218076,-0.0489151,-0.0721745,0.0169745
-0.0214322,-0.0470862,-0.065809,0.0349108
-0.021174,-0.0448533,-0.0598276,0.0524981
-0.021281,-0.0419412,-0.0534074,0.0698607
-0.021514,-0.0391173,-0.0475651,0.0869744
-0.0218132,-0.0394065,-0.0520731,0.0659553
-0.0219487,-0.0370465,-0.0462064,0.0832097
-0.0220798,-0.0347686,-0.0402188,0.100308
-0.0223577,-0.0310969,-0.0348769,0.117105
-0.0227522,-0.0267266,-0.0295892,0.133654
-0.0231012,-0.0219049,-0.024957,0.149852
-0.0233933,-0.0171889,-0.020349,0.165687
-0.0234679,-0.013018,-0.0156714,0.181257
-0.0236664,-0.00837928,-0.0111573,0.196442
-0.0237877,-0.00342624,-0.0065009,0.211226
-0.0240251,0.0015692,-0.00156571,0.225586
-0.0240959,0.00640635,0.00304223,0.239731
-0.0243682,0.0113592,0.00753499,0.253544
-0.0247024,0.0169172,0.0124447,0.266853
-0.0253249,0.0121441,0.00835428,0.243143
-0.0257817,0.00725376,0.0042518,0.219944
-0.0261267,0.00187447,0.000592652,0.19732
-0.0262638,-0.00366185,-0.00298548,0.175172
-0.0261734,-0.00948533,-0.00629346,0.153444
-0.0258221,-0.0157143,-0.0104007,0.132498
-0.0253956,-0.0217859,-0.0149232,0.111989
-0.0249489,-0.0276476,-0.0195198,0.0916914
-0.0244652,-0.0220009,-0.0146143,0.108017
-0.0239986,-0.017309,-0.0101799,0.124228
-0.0235757,-0.011897,-0.00668438,0.140118
-0.0230867,-0.00668803,-0.00368414,0.155879
-0.0224626,-0.00150066,-0.000416489,0.171289
-0.0215365,0.00346576,0.00351719,0.186512
-0.0203881,0.00794786,0.00713049,0.201588
-0.0192054,0.0123896,0.0101602,0.216318
-0.0173716,0.0148723,0.0123998,0.231268
-0.0155173,0.017111,0.0153629,0.245799
-0.0131654,0.0198967,0.0198436,0.259832
-0.0100678,0.0203645,0.0253409,0.273826
-0.00715259,0.0197926,0.0303907,0.287533
-0.00391395,0.0186386,0.0350066,0.301003
-0.00015268,0.0152078,0.0300787,0.276149
0.00365431,0.0135798,0.0327214,0.290138
0.00796238,0.0107912,0.0278522,0.265344
0.011823,0.00792852,0.0313399,0.279242
0.0154987,0.008656,0.0279322,0.254343
0.0186288,0.00947858,0.0243849,0.229918
0.0210994,0.00684548,0.0275918,0.24447
0.0233477,0.00324635,0.0318061,0.258443
0.0256479,0.00046097,0.0360981,0.272111
0.0282253,-0.00274314,0.0403892,0.285403
0.0307964,-0.00555085,0.0464316,0.298047
0.0335972,-0.00882553,0.052339,0.310333
0.0368371,-0.00538047,0.0501424,0.284576
0.0400467,-0.000646244,0.0495353,0.259436
0.0426285,-0.00878927,0.0548998,0.271208
0.0451313,-0.00320994,0.052754,0.246747
0.0471791,0.00484811,0.0498076,0.223795
0.0487262,0.0127627,0.0465837,0.201499
0.0496654,0.0216041,0.0429504,0.180159
0.050186,0.0303134,0.0389102,0.159369
0.0501169,0.020786,0.0439197,0.172325
0.0497494,0.0298457,0.0393687,0.151831
0.0489594,0.0209606,0.0443134,0.165412
0.0480442,0.0123939,0.0486485,0.179032
0.0470723,0.00367338,0.0526193,0.192358
0.0460278,-0.00515066,0.0563698,0.205361
0.0446382,0.00404958,0.0505444,0.184509
0.0429124,0.013061,0.0443036,0.164456
0.041095,0.0209956,0.0377599,0.144732
0.0391147,0.0288053,0.0316656,0.125601
0.0371011,0.0352272,0.0256596,0.106372
0.0352407,0.0403413,0.0187012,0.0873475
0.0338387,0.0472642,0.0135606,0.0690089
0.0326281,0.05117,0.0080781,0.0500322
0.0316654,0.0559126,0.0033319,0.0316265
0.0309681,0.051119,0.00542849,0.0508241
0.0295615,0.0464786,0.0070356,0.0698048
0.0275051,0.0440954,0.00957305,0.0885136
0.0249783,0.0431822,0.0033528,0.0684266
0.0229785,0.044752,0.00672839,0.0865214
0.0206508,0.0435327,-0.000543595,0.0664285
0.0188715,0.0454835,0.00406426,0.0839571
0.0168657,0.0493955,0.00869609,0.100713
0.0147665,0.0551164,0.0136703,0.1164
0.012833,0.0601961,0.0187434,0.131879
0.0110844,0.0654722,0.0240689,0.146858
0.00945339,0.0708621,0.0301546,0.16119
0.00812904,0.0765709,0.035972,0.175099
0.00707079,0.0824558,0.0411477,0.188781
0.00618234,0.0885894,0.0460964,0.202104
0.00535054,0.0942741,0.0511422,0.215243
0.00460031,0.0864211,0.0440933,0.193287
0.00388756,0.0792208,0.0371037,0.17155
0.00335665,0.0717673,0.0296249,0.150581
0.00295251,0.0641803,0.0227885,0.129907
0.00285022,0.0560348,0.0159142,0.109931
0.00297327,0.0478479,0.00913024,0.0903395
0.00331576,0.0390592,0.00339172,0.0711892
0.00366714,0.0464809,0.00426362,0.0875211
0.00433945,0.0526934,0.00490728,0.104058
0.00558365,0.0574781,0.00408244,0.120872
0.00759954,0.0607177,0.00560592,0.137459
0.0101859,0.0653465,0.00463895,0.153391
0.0126739,0.0688549,0.00348414,0.169395
0.0154469,0.0724029,0.00221233,0.184889
0.0179674,0.0774912,0.000670277,0.19955
0.020261,0.0803017,-0.00054101,0.214501
0.022209,0.0717623,-0.00184592,0.191743
0.0239218,0.0770389,-0.00321418,0.206141
0.0260347,0.0814653,-0.0042566,0.220477
0.0282019,0.084525,-0.00495346,0.234958
0.0301167,0.0859545,-0.00593106,0.249641
0.0320841,0.0865141,-0.00603139,0.264278
0.033446,0.0876444,-0.00370708,0.278482
0.0344223,0.0878086,-7.51574e-05,0.292645
0.0353291,0.0865984,0.00547876,0.306748
0.036026,0.0871522,0.0153153,0.319442
0.0367526,0.0899823,0.0197491,0.33181
0.0364254,0.0886278,0.0280601,0.343639
0.0362358,0.0894233,0.0409747,0.354457
0.0358179,0.0946584,0.050263,0.36477
0.0352949,0.100508,0.0607597,0.373984
0.0342852,0.106412,0.0692313,0.383259
0.0320508,0.109638,0.0777274,0.39298
0.0294197,0.109856,0.0862273,0.403253
0.0260431,0.108524,0.0944581,0.413716
0.0219634,0.108785,0.103052,0.423319
0.0173086,0.109625,0.109764,0.432985
0.0126034,0.111235,0.113435,0.442869
0.00936649,0.110984,0.113119,0.454102
0.00726881,0.106837,0.111719,0.466263
0.0065379,0.101182,0.109838,0.478468
0.00567959,0.0983949,0.106879,0.489986
0.00521095,0.0930925,0.104265,0.50162
0.00741696,0.0838508,0.0922699,0.475139
0.010881,0.0758114,0.0826686,0.448459
0.0145347,0.067182,0.0793759,0.460805
0.0189029,0.0561689,0.0782986,0.472546
0.0226284,0.0432908,0.0772683,0.483804
0.0262815,0.029229,0.0772629,0.493995
0.0297473,0.025888,0.0738428,0.466033
0.0323587,0.0113734,0.0712305,0.475797
0.0329274,-0.000280044,0.0677657,0.486095
0.0321592,0.00449055,0.0611375,0.459256
0.0286889,0.000349497,0.0597674,0.469885
0.0224781,0.00608572,0.0562598,0.442276
0.015976,0.00381697,0.0549894,0.453318
0.00908772,0.00110335,0.0538541,0.463971
0.00251016,0.00201808,0.0543485,0.47443
-0.00356879,0.00514826,0.0548163,0.484623
-0.00787632,0.00736311,0.0525041,0.494853
-0.0107118,0.0126358,0.0507587,0.504707
-0.0150024,0.0183831,0.0504389,0.514208
-0.0184234,0.0243111,0.0516055,0.523234
-0.0204329,0.0312903,0.0502609,0.53227
-0.021137,0.0310489,0.0472821,0.502664
-0.0175897,0.036063,0.0440219,0.473509
-0.0114967,0.0387539,0.0413784,0.484076
-0.00590252,0.0461909,0.0390779,0.493795
-0.00549871,0.0565633,0.0403153,0.502584
-0.00612868,0.0597363,0.0420947,0.511787
-0.00717511,0.0638417,0.0450422,0.520547
-0.00854506,0.0696655,0.0504775,0.528713
-0.0113459,0.0818841,0.0531975,0.535731
-0.0102271,0.0923176,0.0538331,0.543166
-0.0108407,0.108215,0.0505358,0.549324
-0.00999698,0.128379,0.0483845,0.553793
-0.0094619,0.128,0.0474369,0.522626
-0.00861,0.129322,0.0520044,0.530712
-0.00271632,0.133144,0.0566063,0.53728
0.00360669,0.144115,0.0593395,0.541981
0.00633476,0.150415,0.0599008,0.547903
0.00733374,0.165173,0.061842,0.551891
0.00427438,0.170016,0.0597553,0.520222
-0.000417893,0.199442,0.0566086,0.519584
-0.00261322,0.220992,0.0545836,0.520024
0.000325638,0.245202,0.0576932,0.518364
0.0106231,0.260329,0.0572087,0.479102
0.0196267,0.273677,0.0566116,0.478536
0.0226395,0.276874,0.0559591,0.482531
0.0210339,0.295737,0.0539284,0.481866
0.0164389,0.317891,0.050436,0.478713
0.0134967,0.320716,0.0442374,0.440368
0.0116529,0.318844,0.0385778,0.40479
0.0127663,0.338248,0.0393757,0.40123
0.014969,0.350586,0.0469086,0.398113
0.0191581,0.358132,0.0555095,0.393851
0.0232713,0.365115,0.0577051,0.395682
0.0254145,0.379886,0.0535294,0.393327
0.0261034,0.376208,0.0453298,0.355668
0.0258575,0.372164,0.0383838,0.317689
0.0255515,0.359786,0.0349936,0.288003
0.0263214,0.372071,0.0370011,0.287098
0.0280536,0.37807,0.0445981,0.28564
0.0303252,0.382382,0.0452597,0.244353
0.032052,0.384944,0.0472355,0.247522
0.0332809,0.397121,0.0434734,0.24538
0.0345488,0.388157,0.0355593,0.209062
0.0347566,0.397663,0.0332565,0.211263
0.0338207,0.407938,0.0345558,0.209637
0.0342246,0.411123,0.0366519,0.169685
0.0326566,0.409576,0.0442938,0.167602
0.0305879,0.404582,0.0482637,0.172928
0.0314035,0.406191,0.0506007,0.17439
0.0337311,0.393865,0.0428077,0.139793
0.037967,0.380458,0.0324774,0.105946
0.0402705,0.363374,0.0263485,0.078128
0.0391426,0.368013,0.026737,0.0912427
0.038554,0.371669,0.0272297,0.105875
0.0384206,0.375713,0.0272173,0.118803
0.0381914,0.380208,0.0272164,0.131233
0.0372473,0.383837,0.0276478,0.144855
0.0360056,0.364775,0.026933,0.127793
0.0344472,0.366908,0.0292053,0.145119
0.0327561,0.368051,0.0316233,0.162949
0.031378,0.367467,0.0349981,0.181464
0.0306701,0.367085,0.0401974,0.198992
0.0308386,0.367267,0.0447351,0.214731
0.0320684,0.364712,0.0482779,0.232074
0.0326779,0.346998,0.0473568,0.214202
0.0320224,0.331144,0.0455516,0.195825
0.0335489,0.328356,0.0485642,0.211872
0.0340989,0.313912,0.0440447,0.189533
0.0336427,0.300186,0.0384818,0.166799
0.0329395,0.304157,0.0390445,0.180055
0.0312805,0.309154,0.040267,0.192762
0.0295037,0.293441,0.036308,0.173623
0.0286413,0.295772,0.0383202,0.190226
0.0296591,0.291839,0.0344512,0.207783
0.0333002,0.277939,0.0342918,0.187595
0.03182,0.273673,0.035271,0.171412
0.0333543,0.268579,0.0356699,0.193452
0.038135,0.272849,0.0313407,0.205451
0.0402105,0.277011,0.0313869,0.217602
0.0403523,0.277703,0.032788,0.233029
0.0400195,0.277927,0.033201,0.248121
0.0393997,0.27829,0.0342144,0.262591
0.038558,0.278623,0.0359252,0.276674
0.0375369,0.279704,0.0378803,0.289901
0.0367415,0.280837,0.038751,0.302551
0.0359674,0.282095,0.0398406,0.314937
0.0350855,0.28195,0.0411027,0.327931
0.0338304,0.282032,0.0427158,0.340743
0.0325758,0.281625,0.043849,0.353484
0.0313214,0.280638,0.0453584,0.366433
0.0301256,0.279267,0.0463518,0.379198
0.0291561,0.278311,0.0469931,0.391376
0.0281642,0.266498,0.0443313,0.365673
0.0272499,0.254983,0.0416435,0.34039
0.0262226,0.255363,0.0421513,0.352717
0.025045,0.24477,0.0392274,0.327246
0.0234471,0.244585,0.0399816,0.340309
0.0213621,0.245257,0.0408515,0.352712
0.0192246,0.245381,0.0418025,0.364847
0.0166354,0.234221,0.038995,0.339658
0.0143426,0.234652,0.0399094,0.351938
0.0114515,0.234567,0.0410079,0.364439
0.00812081,0.23591,0.0422817,0.376044
0.00512421,0.237299,0.0424999,0.387274
0.00219607,0.226984,0.040051,0.361034
-0.00067079,0.216383,0.0371846,0.335556
-0.00287142,0.205884,0.0341666,0.310559
-0.00436598,0.208182,0.0346126,0.322942
-0.00543242,0.211042,0.0348886,0.334813
-0.00655766,0.214357,0.0351629,0.346269
-0.00707751,0.216388,0.0350893,0.35797
-0.00764651,0.217428,0.0358192,0.370068
-0.00837413,0.218282,0.0364119,0.381971
-0.00936659,0.218433,0.0380201,0.394013
-0.00995295,0.217219,0.040319,0.406011
-0.0100613,0.205333,0.038409,0.380305
-0.0104407,0.199013,0.0411153,0.394512
-0.0112311,0.196851,0.0437998,0.406685
-0.0125588,0.192207,0.0485919,0.419712
-0.0132648,0.190751,0.0519862,0.431062
-0.0137113,0.190138,0.0534436,0.441936
-0.0141779,0.192432,0.0548362,0.451679
-0.014751,0.193959,0.0550271,0.461575
-0.0146089,0.197072,0.0542148,0.470736
-0.0143441,0.199185,0.0522821,0.480182
-0.0141599,0.201762,0.0506649,0.489265
-0.0139834,0.202818,0.0486273,0.498775
-0.0127212,0.20114,0.0443914,0.509249
-0.0113417,0.201241,0.0416218,0.518793
-0.010094,0.200369,0.0392885,0.528386
-0.00910312,0.200431,0.0383174,0.537351
-0.0083193,0.200447,0.0374167,0.54615
-0.00770219,0.200898,0.0386153,0.554454
-0.00747802,0.204084,0.0423153,0.561507
-0.00688485,0.205209,0.046508,0.569031
-0.00594916,0.205821,0.0486844,0.576696
-0.00439137,0.205155,0.0484241,0.584803
-0.00247456,0.202866,0.0473968,0.593316
-0.000175996,0.199835,0.0473165,0.601873
0.00158073,0.194759,0.0494855,0.610535
0.00295241,0.191684,0.0515292,0.618487
0.00461823,0.189429,0.0536613,0.625965
0.005261,0.186999,0.056506,0.633199
0.00490916,0.187487,0.059571,0.639533
0.00387066,0.190059,0.0614336,0.645308
0.00247115,0.196636,0.0617283,0.649997
0.000164357,0.192552,0.0585442,0.616948
-0.00181391,0.196865,0.0589766,0.622772
-0.00310313,0.199386,0.060099,0.62894
-0.00431274,0.190728,0.0570704,0.597638
-0.00504399,0.192996,0.0578633,0.604451
-0.00527364,0.195052,0.0585666,0.611202
-0.00545829,0.186793,0.0542327,0.580272
-0.00499371,0.192183,0.0538453,0.586549
-0.00366182,0.20056,0.0527556,0.591447
-0.000345348,0.2111,0.0469927,0.594983
0.00604165,0.21597,0.0404479,0.600837
0.0146041,0.206083,0.0369684,0.572224
0.0212675,0.197435,0.0441681,0.58139
0.0275905,0.196109,0.0424406,0.589217
0.03173,0.198795,0.0391127,0.596028
0.032712,0.198615,0.0397788,0.603509
0.0306378,0.19865,0.0420805,0.610864
0.0267761,0.199057,0.0454758,0.617979
0.0215918,0.197945,0.050227,0.625314
0.0157019,0.18761,0.0499497,0.594637
0.0108939,0.189956,0.052858,0.601467
0.00737689,0.182489,0.0499132,0.570453
0.00492919,0.17626,0.0462569,0.53973
0.00378312,0.169659,0.041916,0.509793
0.00299071,0.174124,0.0419912,0.517859
0.00230608,0.179214,0.0418119,0.525516
0.00213358,0.185814,0.0419285,0.532274
0.00418679,0.171985,0.0404825,0.50598
0.00937838,0.176377,0.0318606,0.514075
0.0179312,0.193143,0.0263556,0.482012
0.0163717,0.19516,0.0279201,0.450554
0.0169483,0.199346,0.0261735,0.459326
0.0184846,0.204594,0.0202221,0.467752
0.018279,0.209566,0.0188707,0.475944
0.0158762,0.212341,0.0213418,0.484612
0.0136032,0.213552,0.0237831,0.493719
0.0118315,0.213819,0.0269201,0.503011
0.0103377,0.21418,0.0301919,0.512098
0.00942494,0.215274,0.0335058,0.520662
0.00889699,0.216007,0.0368047,0.52914
0.0087315,0.216635,0.04014,0.537427
0.00865867,0.217502,0.0427857,0.545492
0.00865801,0.218259,0.0451628,0.553491
0.00867978,0.217808,0.0477163,0.561702
0.00860016,0.216858,0.0493658,0.570017
0.00810811,0.209361,0.0459238,0.539381
0.00741688,0.211744,0.049142,0.546809
0.0072378,0.213587,0.0516682,0.554388
0.00701332,0.214251,0.0546671,0.562162
0.00664229,0.214781,0.0572281,0.569888
0.00637452,0.215058,0.059926,0.577483
0.00617427,0.214902,0.0619514,0.585221
0.00684084,0.214934,0.0625004,0.592842
0.00769479,0.214701,0.0627693,0.600446
0.00816502,0.213257,0.0637956,0.608176
0.00891917,0.212468,0.0644735,0.615587
0.00983553,0.210857,0.0648279,0.623142
0.0112137,0.210779,0.0651071,0.63008
0.0130496,0.210774,0.0642782,0.636934
0.0153567,0.210922,0.0629708,0.643609
0.0187464,0.208573,0.0616644,0.650859
0.0229677,0.208745,0.0593924,0.657202
0.0280171,0.207129,0.0564151,0.663987
0.0330049,0.200836,0.056641,0.671721
0.0379455,0.195186,0.0580576,0.678924
0.0431914,0.191596,0.0590222,0.685316
0.0497057,0.188009,0.0596692,0.691442
0.0569284,0.18188,0.0609402,0.697817
0.065603,0.170166,0.0623446,0.705022
0.0726916,0.164666,0.0635611,0.710647
0.0794335,0.161902,0.0643953,0.71554
0.0860018,0.159988,0.0645251,0.720122
0.0931378,0.157613,0.0639458,0.724507
0.0993749,0.155631,0.0629158,0.728783
0.10449,0.153943,0.062583,0.733041
0.108421,0.152714,0.0629307,0.737211
0.11141,0.151404,0.0643935,0.741318
0.11381,0.1502,0.0659659,0.745371
0.11548,0.149376,0.0689525,0.749274
0.11689,0.148285,0.0722269,0.753082
0.118582,0.147615,0.0746985,0.75685
0.120701,0.145656,0.0746554,0.760805
0.123442,0.142886,0.0705512,0.725658
0.124779,0.141362,0.0698676,0.730364
0.124884,0.140051,0.0698987,0.735089
0.123462,0.138487,0.0714569,0.739864
0.121154,0.135857,0.0698901,0.70559
0.11823,0.13515,0.0721056,0.711071
0.114791,0.134136,0.0745772,0.716531
0.11144,0.133113,0.076963,0.721874
0.107873,0.132429,0.0797428,0.727051
0.104546,0.131144,0.0838755,0.731969
0.100646,0.128509,0.0879137,0.737137
0.0969961,0.124686,0.0923366,0.742272
0.0934988,0.122617,0.096423,0.747055
0.0903424,0.12108,0.100516,0.751525
0.0871732,0.119587,0.104947,0.755871
0.0841181,0.11882,0.109217,0.759976
0.0808223,0.118109,0.113693,0.763952
0.0774123,0.113482,0.111649,0.729672
0.0738262,0.108695,0.109454,0.696117
0.0703488,0.107985,0.116746,0.700884
0.0669573,0.105906,0.114711,0.667433
0.0633194,0.103459,0.111944,0.634806
0.0600437,0.104219,0.119786,0.640262
0.056314,0.105592,0.127375,0.645465
0.0525992,0.108039,0.134507,0.650471
0.0484329,0.104201,0.128663,0.619018
0.0447833,0.101308,0.137265,0.62485
0.0416833,0.102767,0.144216,0.630104
0.0393044,0.0989088,0.135546,0.599447
0.0373988,0.098704,0.140902,0.605676
0.0359156,0.0978489,0.145579,0.612017
0.034809,0.0942312,0.135436,0.581968
0.0338321,0.0937462,0.140084,0.588728
0.0328245,0.0954058,0.144216,0.595135
0.0321988,0.0951842,0.148211,0.601646
0.032032,0.0956751,0.151263,0.608028
0.0324503,0.096663,0.149977,0.615523
0.0333532,0.0993558,0.144436,0.623679
0.0346824,0.110667,0.135162,0.629143
0.0370745,0.130933,0.108327,0.622456
0.0471667,0.129519,0.0919437,0.598735
0.0565842,0.138849,0.0677889,0.567163
0.054624,0.160466,0.0679956,0.569838
0.0532649,0.175995,0.0666863,0.53377
0.0515526,0.182664,0.0656751,0.540093
0.0502731,0.184977,0.0645027,0.547595
0.0491227,0.185397,0.0630219,0.555628
0.048036,0.184689,0.0615526,0.563859
0.0470818,0.183347,0.0599269,0.572133
0.0461949,0.181541,0.0585018,0.580374
0.04538,0.179791,0.056875,0.588482
0.0445015,0.177906,0.0556009,0.59647
0.0435672,0.176023,0.0541302,0.604335
0.0427775,0.174103,0.0528607,0.612055
0.0419243,0.172223,0.0515782,0.61962
0.0410647,0.170291,0.0503366,0.627068
0.0402257,0.168504,0.0490082,0.634345
0.0394446,0.166631,0.0477296,0.64151
0.0386084,0.164976,0.0464831,0.648501
0.0378679,0.163265,0.0452072,0.655347
0.0372488,0.161521,0.0440836,0.662072
0.0364202,0.159952,0.0427837,0.668661
0.0356878,0.15843,0.0416403,0.675103
0.034977,0.157007,0.0404763,0.681414
0.0342517,0.155428,0.0393336,0.68764
0.0333941,0.15394,0.0382526,0.693731
0.0328014,0.152532,0.0372969,0.699681
0.0321718,0.151101,0.0360909,0.70551
0.0315942,0.149755,0.0350784,0.711224
0.0308477,0.148322,0.033872,0.716845
0.0303406,0.144038,0.0334645,0.68324
0.0301501,0.139724,0.0326329,0.650299
0.0299138,0.135226,0.0322373,0.618043
0.0294897,0.134176,0.0311536,0.625461
0.0290342,0.128491,0.0312152,0.593858
0.0286455,0.125274,0.0296851,0.562483
0.0280458,0.121593,0.0283084,0.531945
0.026423,0.118079,0.0268916,0.502042
0.0256591,0.117339,0.0256878,0.511808
0.0259934,0.117105,0.0256124,0.521216
0.0250695,0.113701,0.0272237,0.491312
0.0242115,0.112491,0.0272757,0.501311
0.0234171,0.111833,0.0269329,0.511044
0.0229196,0.110323,0.0265253,0.520639
0.0213932,0.109705,0.0257094,0.530033
0.0204886,0.109015,0.0250284,0.539233
0.0199589,0.108171,0.0241857,0.548249
0.0196614,0.107512,0.0236603,0.557063
0.0192825,0.106982,0.02301,0.565685
0.0190687,0.106545,0.0223079,0.574119
0.0187967,0.105937,0.0215984,0.582417
0.0184646,0.105344,0.0209302,0.590557
0.0182558,0.104835,0.0201281,0.598522
0.0180667,0.104284,0.0194437,0.606342
0.0178275,0.103845,0.0188459,0.61399
0.0175372,0.103264,0.0183034,0.621516
0.0171132,0.102668,0.017702,0.628892
0.0163689,0.101429,0.0173496,0.636201
0.0156769,0.0996431,0.0178643,0.643448
0.0146767,0.0987785,0.0189505,0.650435
0.0137645,0.0986985,0.0214716,0.657124
0.0127882,0.0987317,0.0247763,0.663628
0.0119166,0.0836931,0.0216044,0.636686
0.0131431,0.0707788,0.0122664,0.640233
0.0189156,0.0646801,0.0180894,0.611524
0.0196216,0.0595285,0.0262339,0.619133
0.0213802,0.0506205,0.0402819,0.589656
0.0241033,0.0545258,0.0378148,0.597331
0.0253176,0.0569496,0.0363386,0.604964
0.0256786,0.0583843,0.035053,0.612547
0.025624,0.0592176,0.0341364,0.620035
0.0252791,0.0597902,0.0331435,0.627411
0.0248375,0.060299,0.0322404,0.634645
0.0240563,0.0607838,0.0310103,0.641768
0.0234779,0.0611317,0.0299918,0.64875
0.0229659,0.0615527,0.0289708,0.655587
0.0226313,0.0618949,0.0282986,0.662277
0.0223615,0.0625416,0.0275693,0.668812
0.0221004,0.0628849,0.026836,0.675237
0.0218511,0.0631479,0.0261136,0.681543
0.0215972,0.0635895,0.0253763,0.687709
0.0215625,0.0641412,0.0246979,0.693736
0.0212815,0.0646292,0.0238868,0.699665
0.0208993,0.0649079,0.0231646,0.705498
0.0203989,0.0654033,0.0223736,0.711202
0.0199852,0.0658495,0.0217033,0.71679
0.0196496,0.0663668,0.0208669,0.722262
0.0193932,0.0665049,0.0203474,0.727656
0.0187046,0.0666003,0.0196368,0.73296
0.0180313,0.0666424,0.0189964,0.738167
0.0175613,0.0668386,0.0183375,0.743255
0.0173589,0.0670474,0.0177074,0.748231
0.017098,0.0674316,0.0168755,0.753099
0.0169353,0.0676201,0.0162166,0.757885
0.01655,0.0678873,0.0155699,0.762573
0.0162802,0.0680147,0.0147181,0.767179
0.0159186,0.0684327,0.0139453,0.771672
0.0157716,0.0687156,0.0134602,0.77608
0.0155109,0.0691132,0.012784,0.780395
0.0152525,0.0693213,0.0120719,0.784642
0.0151409,0.0694398,0.011547,0.788807
0.0147597,0.0696709,0.0108173,0.79289
0.0145386,0.0697828,0.0102,0.796896
0.0141646,0.0699346,0.00956617,0.800825
0.0138587,0.0701774,0.00893978,0.804667
0.0133611,0.0704075,0.00807824,0.80844
0.0131896,0.070522,0.00763242,0.81214
0.0128141,0.0707047,0.00724292,0.815765
0.0124735,0.0707802,0.00669714,0.819326
0.0121253,0.0711555,0.0060986,0.822793
0.0118934,0.0712717,0.00550655,0.826211
0.0115614,0.0717123,0.00502866,0.829536
0.0113249,0.0719647,0.00464006,0.832809
0.0110848,0.0722654,0.00404526,0.836014
0.011134,0.0723374,0.00383686,0.839169
0.0108818,0.0725504,0.00344045,0.842256
0.0107132,0.0727322,0.00321092,0.845283
0.0103414,0.0730997,0.00279467,0.848237
0.0102522,0.0732128,0.00233568,0.85115
0.0101977,0.0732764,0.00198638,0.854009
0.0100473,0.0734123,0.00158513,0.856808
0.00980366,0.0735641,0.00113224,0.859551
0.00959242,0.0738625,0.000489342,0.862228
0.00936118,0.0741178,0.00012906,0.864855
0.00931365,0.0744056,-0.000355771,0.867425
0.00928763,0.0745181,-0.000597016,0.86996
0.00885811,0.0748282,-0.00101503,0.872432
0.0087197,0.0748615,-0.00132403,0.874876
0.00854677,0.0750168,-0.00185344,0.877261
0.00840857,0.0750805,-0.00220468,0.879607
0.00811891,0.075198,-0.00256426,0.881903
0.00818388,0.0750631,-0.00269536,0.884173
0.00793708,0.0750835,-0.00302577,0.886387
0.00787938,0.0751952,-0.00317987,0.888549
0.0075039,0.0751175,-0.00391491,0.890684
0.00741965,0.0750223,-0.00419864,0.892779
0.00725941,0.0749421,-0.00452798,0.894831
0.0070006,0.0743606,-0.00474332,0.896876
0.00581694,0.0721146,-0.00493678,0.859701
0.00374304,0.0720732,-0.00532711,0.862416
-7.98627e-05,0.0716091,-0.00548245,0.865112
-0.00544914,0.0695055,-0.00576619,0.828549
-0.0116759,0.0662324,-0.0056172,0.79275
-0.0192475,0.0641034,-0.00573256,0.757511
-0.0276371,0.0610467,-0.00561317,0.72291
-0.035376,0.0572265,-0.00473284,0.688992
-0.043435,0.0555236,-0.00361833,0.694739
-0.0517566,0.0548963,-0.00292239,0.70017
-0.0592047,0.0550224,-0.00254359,0.705329
-0.0652132,0.0551608,-0.00286364,0.71045
-0.0690492,0.0558439,-0.0031462,0.715544
-0.0708523,0.0558296,-0.00440126,0.720785
-0.0706694,0.0561616,-0.00544853,0.726079
-0.0697314,0.0572789,-0.00650438,0.731283
-0.0686731,0.0586894,-0.00728508,0.736376
-0.0678944,0.0604248,-0.00837588,0.741311
-0.0671119,0.0624049,-0.00924269,0.746093
-0.0659102,0.0607343,-0.0101015,0.751153
-0.0646834,0.0601271,-0.0106307,0.756034
-0.0634022,0.0604552,-0.0111417,0.760752
-0.0620696,0.0608587,-0.0116011,0.765376
-0.0602582,0.0581562,-0.0112213,0.730868
-0.058902,0.0579143,-0.0105532,0.736156
-0.057298,0.0582568,-0.0104541,0.74131
-0.0559224,0.0585504,-0.0105331,0.746346
-0.0546174,0.0589313,-0.0106484,0.751273
-0.0535059,0.0592035,-0.0108631,0.756097
-0.0522741,0.0594171,-0.0110366,0.76084
-0.0513326,0.0598969,-0.0112759,0.76545
-0.0501349,0.0601813,-0.0113517,0.770004
-0.0490768,0.0607601,-0.0115366,0.774437
-0.0480843,0.0611281,-0.0117382,0.778795
-0.0472458,0.061587,-0.0120063,0.783051
-0.0462875,0.0618764,-0.01213,0.787246
-0.0454846,0.0623044,-0.0122975,0.791339
-0.0443586,0.0626203,-0.0124218,0.79538
-0.0436514,0.0629903,-0.0127216,0.799311
-0.0427144,0.0633116,-0.0129542,0.803183
-0.0419709,0.0637467,-0.0131693,0.80696
-0.0409583,0.0640352,-0.0133276,0.81069
-0.0399367,0.0641573,-0.0134711,0.814361
-0.0391073,0.0645109,-0.0137547,0.81793
-0.0381471,0.0648054,-0.013898,0.821442
-0.0373827,0.0651591,-0.0141263,0.824871
-0.036607,0.0651394,-0.0140403,0.828266
-0.0358355,0.0652526,-0.0141865,0.831582
-0.0351138,0.0653946,-0.0142454,0.83483
-0.034568,0.065807,-0.0144408,0.837983
-0.0341359,0.06602,-0.0146246,0.841087
-0.0338882,0.0662637,-0.014907,0.844116
-0.0334009,0.0665839,-0.0149661,0.847094
-0.0328757,0.0669341,-0.0151197,0.850012
-0.0322889,0.0669397,-0.0151614,0.852904
-0.0317346,0.0672579,-0.0151864,0.855714
-0.0309453,0.0676818,-0.0152039,0.858469
-0.0302606,0.0682333,-0.0153125,0.861155
-0.0294671,0.0687147,-0.0153924,0.863798
-0.0289377,0.069203,-0.0154412,0.866379
-0.0280727,0.0693647,-0.0155123,0.868946
-0.0274672,0.069483,-0.0158147,0.871453
-0.0271381,0.0696589,-0.0162203,0.873896
-0.0264295,0.0697693,-0.016294,0.876313
-0.0258334,0.0700636,-0.0164369,0.878664
-0.0251334,0.0699643,-0.0163748,0.881007
-0.0245042,0.0670608,-0.0159376,0.844187
-0.0239332,0.0671029,-0.0159529,0.847196
-0.0236161,0.0675882,-0.0161106,0.8501
-0.0231226,0.0678932,-0.0162031,0.852967
-0.0228036,0.0681605,-0.0163124,0.855775
-0.0223359,0.0682742,-0.0162901,0.858547
-0.0220091,0.0685718,-0.0166416,0.86124
-0.02141,0.0687608,-0.0168263,0.863898
-0.0210415,0.0690884,-0.0172159,0.866482
-0.0204948,0.0691544,-0.0171923,0.869049
-0.0201122,0.0693695,-0.0171478,0.871549
-0.0196197,0.0662747,-0.0167394,0.834929
-0.0193893,0.0664668,-0.0170378,0.838095
-0.0189197,0.0664656,-0.0170975,0.841223
-0.0187994,0.0667679,-0.0173009,0.844257
-0.0184055,0.0670492,-0.0172953,0.847242
-0.0178086,0.0671098,-0.017103,0.850194
-0.0173324,0.0643297,-0.01664,0.813972
-0.0169169,0.0644837,-0.016693,0.817566
-0.0165949,0.0647924,-0.0167554,0.821074
-0.0161613,0.0648804,-0.0166021,0.824538
-0.0158433,0.0652475,-0.0165283,0.827908
-0.0153972,0.0654441,-0.0163617,0.831228
-0.0150561,0.0658307,-0.01631,0.834465
-0.0145555,0.0661001,-0.0161524,0.837651
-0.0142349,0.0664616,-0.0162686,0.840759
-0.0137995,0.0665487,-0.0162471,0.843832
-0.0134954,0.0668563,-0.0163483,0.846823
-0.0132436,0.0669929,-0.0163217,0.84977
-0.013009,0.067329,-0.0162838,0.852643
-0.0124589,0.0675371,-0.0161611,0.855475
-0.0122814,0.0676913,-0.0161508,0.858248
-0.0119619,0.0676071,-0.0159785,0.86099
-0.0119375,0.0677735,-0.0159722,0.863653
-0.0119482,0.0678988,-0.0160244,0.866265
-0.0120406,0.0679802,-0.0164053,0.868822
-0.0122366,0.0683165,-0.0168169,0.871306
-0.0121423,0.0684787,-0.0170865,0.873761
-0.0121028,0.0687216,-0.0173287,0.87616
-0.0118953,0.0689237,-0.0175461,0.878519
-0.011764,0.0692588,-0.0176737,0.88082
-0.0114784,0.0694641,-0.0176804,0.883092
-0.011492,0.0696363,-0.0179147,0.885312
-0.0111436,0.0698392,-0.017903,0.887496
-0.0110825,0.0700867,-0.0179584,0.889627
-0.0106084,0.0699662,-0.0180733,0.89175
-0.0104964,0.0703121,-0.018219,0.893789
-0.0101397,0.0702981,-0.018133,0.895825
-0.00999487,0.0704772,-0.0182087,0.897799
-0.00948425,0.0704143,-0.0179691,0.899763
-0.00900823,0.0704927,-0.0179251,0.901674
-0.00868989,0.0702845,-0.0177967,0.903569
-0.00867112,0.0704932,-0.0180723,0.905385
-0.0085811,0.0704119,-0.0180491,0.907193
-0.00863084,0.0674646,-0.0177938,0.869852
-0.00854167,0.0677144,-0.0178524,0.872334
-0.00838774,0.0675827,-0.0179112,0.874798
-0.00828984,0.067665,-0.0180913,0.877194
-0.00804276,0.0677068,-0.0178828,0.879555
-0.0080476,0.0680565,-0.0180078,0.881837
-0.00801737,0.0681935,-0.0180246,0.884092
-0.00800762,0.0687608,-0.0181946,0.886267
-0.00784033,0.0688638,-0.0181225,0.88844
-0.0077959,0.0691124,-0.0182386,0.890554
-0.00772419,0.0692643,-0.0182114,0.892636
-0.00736737,0.0695014,-0.0182922,0.894673
-0.00702227,0.0694173,-0.0180476,0.896699
-0.00684403,0.0693898,-0.0180613,0.898675
-0.00654326,0.0693762,-0.0179422,0.900614
-0.00636388,0.0694935,-0.0180791,0.9025
-0.00599248,0.0698033,-0.0181772,0.904337
-0.00603053,0.0701692,-0.0183504,0.906128
-0.00604029,0.0703163,-0.0183519,0.907905
-0.00616121,0.0707457,-0.0184354,0.909621
-0.00594778,0.0709595,-0.0185976,0.911321
-0.00571192,0.0712682,-0.0188382,0.912978
-0.00530235,0.0714474,-0.0186047,0.914622
-0.00486974,0.07156,-0.0184542,0.916238
-0.00479323,0.0717314,-0.018583,0.91781
-0.0046491,0.0716816,-0.0185961,0.919371
-0.00442386,0.0715334,-0.0185037,0.920907
-0.00396665,0.0714619,-0.0184849,0.922412
-0.00381395,0.0713173,-0.018675,0.923887
-0.00371482,0.0710307,-0.018615,0.925348
-0.00355559,0.0710602,-0.0186789,0.926755
-0.00329064,0.0708665,-0.0183123,0.928159
-0.00311071,0.0709728,-0.0180891,0.929511
-0.0029245,0.070619,-0.0175119,0.930877
-0.00278816,0.0693496,-0.0163887,0.932293
-0.00264881,0.0692646,-0.0147393,0.933601
-0.00268541,0.0693657,-0.0126074,0.934874
-0.00236923,0.0692647,-0.00944105,0.936143
-0.00262897,0.0700386,-0.00600625,0.937319
-0.00271823,0.0698245,-0.000948408,0.938534
-0.00298727,0.071701,0.00510908,0.939522
-0.00301629,0.0731802,0.0128472,0.940439
-0.00311601,0.074669,0.0221078,0.941256
-0.003745,0.07759,0.0332308,0.941766
-0.00454586,0.0832006,0.0458606,0.941798
-0.0049672,0.0864257,0.0589137,0.941728
-0.00470126,0.0870893,0.0733716,0.94161
-0.00444785,0.0879937,0.0894044,0.941002
-0.00415898,0.0909776,0.104871,0.940077
-0.00404945,0.0924127,0.122273,0.938693
-0.00382898,0.0952967,0.141719,0.936394
-0.00392392,0.0986549,0.162473,0.933252
-0.00442246,0.0988569,0.168191,0.893567
-0.00518123,0.104937,0.189032,0.8896
-0.00610348,0.108648,0.209784,0.885593
-0.00746071,0.106427,0.209665,0.848141
-0.00892982,0.108468,0.230354,0.843767
-0.0103173,0.112931,0.250034,0.838726
-0.0110022,0.10939,0.243667,0.804078
-0.0116351,0.104157,0.23592,0.770681
-0.0118448,0.0999772,0.226061,0.738777
-0.0123073,0.0946397,0.214897,0.708243
-0.0125289,0.0887881,0.202718,0.67892
-0.0129507,0.084091,0.188873,0.650783
-0.0133967,0.0788358,0.17387,0.623779
-0.0139213,0.0732617,0.15798,0.597632
-0.0143527,0.0673329,0.14168,0.572108
-0.0145454,0.0609036,0.125056,0.547143
-0.014469,0.0551727,0.107558,0.522828
-0.0137365,0.0514896,0.0895241,0.49879
-0.0131939,0.0458745,0.0718457,0.475072
-0.0125109,0.0488908,0.0776072,0.48178
-0.0115745,0.0511758,0.0818503,0.489162
-0.0102712,0.0522564,0.08552,0.49678
-0.00916143,0.0536998,0.0873106,0.504805
-0.00822807,0.054698,0.0882139,0.513159
-0.00751942,0.0579644,0.0872515,0.521642
-0.00714655,0.0592525,0.0855458,0.530566
-0.00682759,0.0617469,0.0831603,0.539221
-0.00622612,0.0618152,0.0798389,0.548382
-0.00559706,0.0620283,0.0759248,0.557443
-0.00490565,0.0614225,0.0705833,0.566689
-0.00464542,0.0607426,0.0644524,0.575915
-0.00423084,0.0618026,0.0584041,0.58462
-0.00406095,0.0618468,0.0522607,0.593267
-0.00440399,0.0631048,0.0461648,0.601546
-0.00473648,0.0630045,0.0407567,0.609704
-0.00489796,0.0617245,0.0337926,0.617911
-0.00496815,0.0581801,0.0266217,0.626102
-0.00477363,0.0558222,0.0204866,0.633881
-0.00431904,0.0549945,0.015431,0.641259
-0.00366254,0.0534533,0.00981184,0.648542
-0.00280657,0.0524443,0.00419739,0.655582
-0.00231572,0.0522056,-0.00198839,0.662371
-0.00160928,0.0530467,-0.00706454,0.629558
-0.00140978,0.0518969,-0.0094149,0.597518
-0.00164743,0.0499276,-0.0100019,0.566188
-0.00159533,0.0476596,-0.0102851,0.535505
-0.00106649,0.0461035,-0.0101314,0.505395
-0.000934424,0.0474299,-0.00982254,0.514976
-0.000844515,0.0480365,-0.00952039,0.524431
-0.00101937,0.0455961,-0.00905355,0.494599
-0.000983377,0.0461913,-0.00916937,0.504451
-0.00100478,0.0436539,-0.00873583,0.475022
-0.00101341,0.0444371,-0.00878612,0.485245
-0.000893083,0.0452613,-0.0089391,0.495262
-0.000882551,0.0461272,-0.00901067,0.505076
-0.000794744,0.046834,-0.00914143,0.514711
-0.000795567,0.0475926,-0.00939567,0.524149
-0.00075503,0.0448947,-0.00894954,0.494346
-0.000715548,0.0424658,-0.00856564,0.465106
-0.000670675,0.0434034,-0.00859844,0.475512
-0.000767851,0.0411147,-0.00837212,0.446629
-0.000807259,0.0420615,-0.00862425,0.457396
-0.000799274,0.0430385,-0.00883793,0.467947
-0.000672709,0.0438175,-0.00892985,0.47831
-0.000635612,0.0446715,-0.00918022,0.488459
-0.000545874,0.0454069,-0.00940995,0.498419
-0.000609712,0.046244,-0.00970165,0.508171
-0.000608702,0.0469959,-0.00978821,0.517742
-0.000662059,0.0477879,-0.0100247,0.527117
-0.000618152,0.0484832,-0.0100006,0.53632
-0.000716751,0.0459776,-0.00968031,0.506257
-0.000731162,0.0469076,-0.0099059,0.515848
-0.000695557,0.0444151,-0.00933171,0.486193
-0.000745923,0.0420168,-0.00895083,0.457111
-0.000672381,0.0428744,-0.00905567,0.467681
-0.000749918,0.0437839,-0.00921908,0.478037
-0.000754957,0.0443271,-0.00932323,0.48822
-0.000845923,0.045034,-0.00952592,0.498187
-0.000770834,0.0424291,-0.00899072,0.46889
-0.000779142,0.0432777,-0.00921767,0.479227
-0.000748746,0.0440581,-0.0093561,0.489367
-0.000757063,0.0449437,-0.00949382,0.499298
-0.000583186,0.0455306,-0.00959951,0.50906
-0.000628885,0.0464441,-0.00993777,0.518596
-0.000603277,0.0470736,-0.0101329,0.527971
-0.000683747,0.044602,-0.00989888,0.498069
-0.000584621,0.0453055,-0.00991804,0.507845
-0.00066284,0.0428761,-0.00952379,0.47834
-0.000666955,0.0405402,-0.00912652,0.449409
-0.000694198,0.0413758,-0.00939385,0.460131
-0.000699021,0.0421505,-0.00937417,0.47065
-0.000736349,0.0396612,-0.00903569,0.441884
-0.000790197,0.0404753,-0.00930658,0.452756
-0.000720888,0.0412022,-0.00959257,0.463422
-0.00073481,0.0420997,-0.00983782,0.473864
-0.000659411,0.0427786,-0.0100021,0.484119
-0.000623957,0.0435955,-0.0101228,0.494161
-0.000495282,0.0443525,-0.0102264,0.504011
-0.00045157,0.0420403,-0.0098854,0.474572
-0.000326426,0.0427927,-0.00993065,0.484809
-0.00044736,0.0404227,-0.00954796,0.455754
-0.000504131,0.0413129,-0.00960233,0.466351
-0.000653574,0.0388651,-0.00922262,0.437667
-0.000638893,0.0397044,-0.00938325,0.448625
-0.000765373,0.0406223,-0.00954915,0.459357
-0.000667911,0.0413649,-0.00962507,0.469896
-0.000623425,0.0421954,-0.00978412,0.480217
-0.000583394,0.0397919,-0.00929445,0.451259
-0.000636908,0.0407167,-0.00947503,0.461941
-0.000694242,0.0415241,-0.00945916,0.472424
-0.000684835,0.0423329,-0.00956636,0.482699
-0.000594066,0.0430518,-0.00952601,0.49278
-0.000512175,0.043839,-0.00953414,0.502657
-0.000429185,0.0447491,-0.0096649,0.512325
-0.000401992,0.0455216,-0.00978478,0.521815
-0.000389471,0.0430864,-0.00941551,0.492036
-0.000313076,0.0437627,-0.00945623,0.501936
-0.000260854,0.0413549,-0.0090413,0.472548
-0.000105542,0.0421579,-0.009023,0.482824
-1.29658e-05,0.0428463,-0.00910381,0.492905
-8.03391e-06,0.0433924,-0.00930981,0.502797
5.00132e-05,0.0408944,-0.00900527,0.473399
0.000160194,0.0415881,-0.00900956,0.483667
0.000165574,0.0390736,-0.00869746,0.454649
0.0002595,0.0399341,-0.00875992,0.465273
0.000342074,0.0408052,-0.00887552,0.475685
0.000515511,0.0416754,-0.00893587,0.485892
0.000528888,0.0424949,-0.00913242,0.4959
0.000601323,0.0400521,-0.00872767,0.466635
0.000571732,0.0410849,-0.00895273,0.477005
0.00071989,0.0419842,-0.00907092,0.487183
0.000648098,0.039758,-0.00873491,0.458071
0.000489,0.0374596,-0.00832526,0.429541
0.000410305,0.0383039,-0.00853666,0.440659
0.000309776,0.0392455,-0.00873814,0.451549
0.000171826,0.0401324,-0.00894379,0.462229
3.09451e-05,0.040986,-0.00920706,0.472699
3.02763e-05,0.0416639,-0.00925857,0.482982
2.78855e-05,0.0424689,-0.00938231,0.493049
0.000209602,0.0430457,-0.00948236,0.502937
0.000312739,0.0438166,-0.00981916,0.51261
0.000419039,0.044393,-0.0100019,0.522111
0.000456199,0.0453127,-0.0101507,0.531396
0.000587138,0.046057,-0.0100994,0.540516
0.000684234,0.0468475,-0.0102102,0.549448
0.000835577,0.0476515,-0.0103053,0.558204
0.000838421,0.0484733,-0.0104868,0.566783
0.000847938,0.0459305,-0.00995318,0.536129
0.000733897,0.0434971,-0.00958574,0.506069
0.000696986,0.0442413,-0.00969791,0.515686
0.000587732,0.0451372,-0.00988762,0.525099
0.000694163,0.0460321,-0.00983735,0.534329
0.000691939,0.0467848,-0.00985639,0.543389
0.000670602,0.04743,-0.00998245,0.552277
0.000753136,0.0445777,-0.00949177,0.521936
0.000673517,0.0452575,-0.00952365,0.531245
0.000737184,0.0458868,-0.00954202,0.540377
0.00058129,0.046522,-0.00971628,0.549325
0.000642994,0.0439244,-0.00933991,0.519019
0.000689605,0.0447403,-0.00957307,0.528373
0.000806997,0.0454975,-0.00970259,0.537549
0.000719315,0.0463004,-0.00997765,0.546538
0.000729001,0.0438522,-0.00955244,0.516275
0.000657435,0.0446969,-0.0097828,0.525681
0.00060486,0.0455669,-0.00985216,0.5349
0.00037218,0.0464907,-0.0100401,0.543932
0.000358345,0.0471599,-0.0100662,0.552809
0.000226864,0.0479255,-0.0102267,0.561501
0.000224329,0.0486556,-0.0103874,0.570024
0.00017942,0.0462421,-0.0100594,0.539292
0.000219048,0.0469541,-0.0100885,0.548257
0.000208332,0.0478006,-0.0101584,0.557032
0.000338582,0.048551,-0.0101051,0.565645
0.000564863,0.0492203,-0.0100658,0.574095
0.000519145,0.0498979,-0.0102396,0.582373
0.000583446,0.0504625,-0.0102244,0.5905
0.000473931,0.0510577,-0.0103555,0.598461
0.000532876,0.0515621,-0.0105055,0.606273
0.000415498,0.0522122,-0.0108173,0.613917
0.000345665,0.0496316,-0.0103986,0.582334
0.000287359,0.0503045,-0.0107522,0.590447
0.000380306,0.0508119,-0.0108375,0.598418
0.000326919,0.0513933,-0.0111709,0.606222
0.000389453,0.0486442,-0.0108473,0.574803
0.000397351,0.0493598,-0.0111927,0.583062
0.000350701,0.0500517,-0.0112878,0.591163
0.000261496,0.0473925,-0.0108979,0.560035
0.000254954,0.0479789,-0.0109769,0.568601
0.000215062,0.048608,-0.0112071,0.576991
0.00037049,0.0460087,-0.010689,0.546142
0.000396729,0.0435914,-0.0103987,0.515882
0.000453432,0.0442996,-0.0105094,0.525309
0.000420578,0.0451189,-0.0106369,0.53454
0.000405613,0.0427806,-0.0103604,0.504502
0.000491581,0.0403798,-0.00993297,0.475065
0.000450468,0.0412843,-0.0101636,0.485279
0.000408048,0.0422093,-0.0102838,0.495291
0.000454364,0.0430648,-0.0104455,0.505111
0.000567456,0.0437979,-0.0104961,0.514748
0.000533582,0.0445672,-0.0107552,0.524189
0.000646007,0.0420376,-0.0102894,0.494375
0.000596479,0.0426769,-0.0104903,0.50423
0.000583345,0.0434876,-0.0106438,0.513877
0.000502985,0.0442099,-0.0109269,0.52334
0.000488242,0.0449376,-0.0109888,0.532618
0.000465711,0.0425101,-0.0106232,0.502626
0.000578591,0.0400577,-0.0100866,0.473233
0.000611435,0.0378122,-0.00965202,0.4444
0.000839191,0.0387277,-0.00974166,0.455222
0.000890979,0.0396989,-0.00998276,0.465821
0.000789935,0.0373343,-0.00963523,0.437143
0.00065417,0.0350815,-0.00936394,0.40902
0.000573571,0.0358879,-0.00954205,0.420547
0.000571361,0.0366171,-0.00953378,0.431857
0.000479682,0.0373884,-0.00970187,0.442937
0.000437297,0.0381767,-0.00990171,0.453796
0.000308419,0.0389692,-0.0100855,0.46444
0.000274841,0.0365424,-0.00970397,0.435797
0.00013478,0.0373813,-0.00984648,0.446793
