q_0,q_1,q_2,q_3,q_4
0.819672,-0.00149326,0.000378183,0.180242
0.692351,-0.00268671,0.00114184,0.306715
0.597568,-0.00185565,0.000715075,0.128776
0.524424,-0.0023105,0.000429629,0.235134
0.466201,-0.00198658,0.000145875,0.098138
0.418788,-0.00190641,0.000165037,-0.0135751
0.37942,-0.00199159,0.00040069,0.081393
0.346213,-0.00270938,0.000255928,0.162035
0.317886,-0.0027947,0.0006842,0.230474
0.293381,-0.00315648,0.000827779,0.289844
0.272019,-0.00256605,0.000916229,0.195625
0.253171,-0.00287889,0.000821422,0.251389
0.23648,-0.00266247,0.000908141,0.168645
0.221518,-0.00297364,0.000745607,0.221283
0.208133,-0.00315801,0.0006081,0.268261
0.196007,-0.0035278,0.000340054,0.310925
0.185106,-0.00370138,0.00038401,0.349264
0.175068,-0.00377485,0.000153771,0.384462
0.165942,-0.00346533,1.05055e-05,0.312249
0.157556,-0.00341551,0.000214814,0.347105
0.149943,-0.00354274,-0.000115672,0.378995
0.142868,-0.00401668,-0.000130307,0.408587
0.136401,-0.00418964,-0.000291833,0.435743
0.130174,-0.00366842,-0.000622307,0.371111
0.124494,-0.00347904,-0.000567589,0.310767
0.119153,-0.00373894,-0.000600753,0.340345
0.114151,-0.0038776,-0.000655975,0.368019
0.109464,-0.00403361,-0.00106401,0.393917
0.105012,-0.00415562,-0.00141413,0.418307
0.100868,-0.0044683,-0.00120785,0.441148
0.0968593,-0.00468832,-0.00144013,0.462833
0.0932469,-0.0048104,-0.00142964,0.483174
0.0898508,-0.00452715,-0.00171393,0.427994
0.0866531,-0.00429304,-0.00179808,0.375754
0.0835866,-0.00445771,-0.00195559,0.398228
0.0807752,-0.00460201,-0.00176751,0.419393
0.0779229,-0.00463929,-0.00168388,0.439624
0.0752276,-0.0046159,-0.00171609,0.458811
0.072561,-0.00274121,-0.00120314,0.409749
0.0704567,-0.00291029,-0.00150552,0.429256
0.0681956,-0.00320032,-0.00100763,0.382297
0.0661224,-0.00302179,-0.00135591,0.402258
0.0640006,-0.00296949,-0.00174059,0.421433
0.0620441,-0.00320594,-0.0017148,0.439699
0.060087,-0.00333901,-0.00170528,0.457237
0.0582706,-0.00345431,-0.00152242,0.474049
0.056683,-0.00333026,-0.00148858,0.428911
0.0549406,-0.00335161,-0.00157291,0.446191
0.0533096,-0.00336229,-0.00155185,0.462745
0.0517071,-0.00346593,-0.001781,0.478633
0.050087,-0.00337969,-0.00167289,0.435292
0.048512,-0.00345239,-0.00173408,0.451753
0.047199,-0.00373953,-0.00155096,0.467464
0.0457459,-0.0037381,-0.0017258,0.482695
0.0445332,-0.00367176,-0.00188928,0.49725
0.043128,-0.00357943,-0.00224965,0.511373
0.041911,-0.00371723,-0.00227798,0.524979
0.0409138,-0.00375289,-0.00231069,0.538057
0.0399867,-0.00362689,-0.00226796,0.495983
0.0389731,-0.00344402,-0.0024449,0.455384
0.0378996,-0.00349339,-0.00226526,0.469995
0.0365841,-0.00349449,-0.00227819,0.484222
0.0355143,-0.0036875,-0.00211157,0.497876
0.0342562,-0.00362689,-0.00235417,0.511154
0.0331654,-0.00350666,-0.00227239,0.471592
0.032023,-0.00358016,-0.00238893,0.48538
0.031075,-0.00355329,-0.00217861,0.498714
0.0303438,-0.00339967,-0.00217647,0.511571
0.029551,-0.00345583,-0.00235527,0.524049
0.0288625,-0.00321661,-0.00241403,0.485374
0.0282016,-0.0032884,-0.00270629,0.498346
0.0275225,-0.00336188,-0.00268342,0.51092
0.0267855,-0.00341394,-0.00279592,0.523124
0.0260666,-0.00339745,-0.00288655,0.485306
0.0252499,-0.00348728,-0.00306425,0.498036
0.0245678,-0.00368099,-0.00311895,0.510375
0.0239642,-0.00365173,-0.00323816,0.522338
0.0233311,-0.00377834,-0.00310404,0.533954
0.0226555,-0.00359679,-0.00315326,0.496824
0.0220722,-0.00373968,-0.00298546,0.508946
0.0214394,-0.00393571,-0.00307066,0.520752
0.0210379,-0.0040132,-0.00310899,0.532184
0.020529,-0.00390398,-0.00311749,0.543331
0.0202258,-0.00409232,-0.00294562,0.554107
0.0195849,-0.00414881,-0.0027344,0.517449
0.0189849,-0.00174901,-0.003422,0.481861
0.0177115,-0.00183045,-0.00346375,0.493975
0.0159634,-0.000369324,-0.0040207,0.459189
0.0137773,-0.000916264,-0.00417203,0.425343
0.0116226,-0.00140013,-0.00264329,0.438709
0.00941787,-0.00166393,0.000341338,0.451706
0.00722594,-0.00195701,0.00160281,0.418441
0.00544133,-0.00190524,0.006169,0.431718
0.00349973,-0.00123169,0.012227,0.444543
0.00176561,0.00159811,0.0195925,0.456865
0.00053665,0.00412742,0.0205017,0.423868
-0.000323676,0.00755175,0.0281638,0.436291
-0.000819307,0.00774148,0.0272884,0.404123
-0.000849179,0.0097712,0.0360882,0.416593
-0.000872675,0.00972766,0.0327634,0.385541
-0.000893444,0.0121725,0.0428623,0.397874
-0.000842723,0.0118428,0.0536498,0.409664
-0.000539912,0.014038,0.0662107,0.420308
-0.000120728,0.0139473,0.0613753,0.389786
0.000237752,0.0139533,0.0565096,0.360045
0.00064436,0.012601,0.0500463,0.331734
0.0010487,0.0125444,0.0427614,0.30433
0.00140502,0.0130137,0.0346147,0.278037
0.00176424,0.013329,0.0486213,0.290205
0.00226089,0.0132408,0.039775,0.2646
0.00273473,0.0131482,0.0294915,0.240606
0.0030786,0.0127215,0.0185934,0.217709
0.00325305,0.0123476,0.00693462,0.196046
0.00344443,0.0118522,0.0233626,0.2079
0.00342975,0.011414,0.0397432,0.21897
0.00336473,0.0109126,0.0566572,0.228658
0.00312777,0.00983648,0.0414218,0.208519
0.00291785,0.0065377,0.0260269,0.18929
0.00306579,0.00376855,0.0107419,0.170322
0.00381451,0.000723922,-0.00432154,0.151568
0.00518229,-0.00101823,-0.0189873,0.132546
0.00693044,-0.00258876,-0.00476077,0.145313
0.00916646,0.00228247,-0.01872,0.126324
0.0114659,0.00997423,-0.0301189,0.107162
0.0138122,0.0181574,-0.0413717,0.0885133
0.0157754,0.025991,-0.0515224,0.0697417
0.0175019,0.0168913,-0.0412891,0.0847216
0.019909,0.00472067,-0.0340447,0.0983817
0.0225253,0.017684,-0.0389393,0.0799438
0.0244721,0.0314469,-0.0401523,0.0619854
0.025776,0.0453619,-0.0413467,0.0451181
0.0263813,0.0591354,-0.0417589,0.0288078
0.0265055,0.0724519,-0.0426245,0.0128796
0.0262519,0.0856218,-0.0427455,-0.00256854
0.0257862,0.0983876,-0.0439017,-0.0174955
0.0252823,0.109403,-0.0475081,-0.0330913
0.0250955,0.0925207,-0.043064,-0.0177875
0.0246751,0.0768718,-0.0384348,-0.0021809
0.0239275,0.0622947,-0.0324755,0.0130549
0.0226577,0.0505463,-0.0241282,0.0283563
0.0206106,0.055345,-0.0375384,0.0125418
0.0194355,0.0525882,-0.0257582,0.0286756
0.0179601,0.049475,-0.0372234,0.0101669
0.0168226,0.0540167,-0.0261576,0.0255246
0.0155053,0.0436376,-0.0360944,0.00823085
0.0147225,0.0306143,-0.0437827,-0.00780172
0.0143567,0.0172712,-0.0506825,-0.0231506
0.0142354,0.00386679,-0.0557991,-0.0384842
0.0142443,-0.0101491,-0.060928,-0.0527298
0.0143034,-0.0239554,-0.0655884,-0.0666568
0.0143599,-0.0374934,-0.0701338,-0.0801416
0.0146192,-0.0505018,-0.0740101,-0.0934844
0.0149774,-0.0632869,-0.0775057,-0.106359
0.0151333,-0.0495659,-0.0712937,-0.088851
0.0148747,-0.0355312,-0.0662915,-0.0719491
0.0140329,-0.0214163,-0.0609822,-0.0556617
0.0130775,-0.0329231,-0.0653805,-0.0701234
0.0118724,-0.0413939,-0.072054,-0.0850082
0.0102053,-0.0468812,-0.0799614,-0.100461
0.00859307,-0.0348894,-0.0690512,-0.0835993
0.00747961,-0.0310779,-0.0773314,-0.101283
0.0060866,-0.0224243,-0.084871,-0.118482
0.00484756,-0.0139535,-0.0905241,-0.135718
0.00370145,-0.00537978,-0.0963121,-0.151978
0.00244302,0.00260214,-0.101959,-0.167482
0.0013807,0.00844474,-0.107733,-0.182598
0.000643758,0.0134836,-0.113136,-0.197448
0.000562912,0.0177413,-0.117466,-0.21241
0.00114455,0.0207978,-0.120882,-0.227556
0.00224281,0.0214204,-0.123884,-0.242716
0.00336893,0.0191177,-0.112818,-0.219695
0.00433098,0.0158083,-0.115834,-0.235085
0.00507424,0.0124774,-0.118664,-0.250048
0.00512245,0.0108347,-0.10978,-0.225952
0.00441069,0.010348,-0.107181,-0.200114
0.00266043,0.0114838,-0.0971438,-0.178199
0.00115446,0.012777,-0.104646,-0.191622
-2.67217e-05,0.0107972,-0.120367,-0.200571
-0.000994475,0.0080753,-0.106646,-0.180979
-0.000856284,0.00316146,-0.0918881,-0.16323
-0.000226042,-0.00512165,-0.108317,-0.170028
0.000290304,-0.0122999,-0.125307,-0.175707
0.00041971,-0.0234358,-0.141692,-0.179775
0.000200237,-0.0307698,-0.158997,-0.183125
0.000412945,-0.0403755,-0.174769,-0.185885
0.00102005,-0.0503936,-0.188774,-0.189103
0.00139421,-0.058922,-0.202638,-0.192272
0.00169402,-0.0677729,-0.215132,-0.195892
0.0021398,-0.0757187,-0.226072,-0.201072
0.00239244,-0.0816469,-0.236089,-0.207795
0.001914,-0.0869417,-0.244038,-0.21671
0.000513447,-0.0873029,-0.252184,-0.227617
-0.00127062,-0.0861761,-0.257941,-0.241632
-0.00382867,-0.0812018,-0.261371,-0.258402
-0.00517472,-0.0754201,-0.261737,-0.277285
-0.00528638,-0.068195,-0.239617,-0.262931
-0.00545025,-0.0617191,-0.220584,-0.246125
-0.00583614,-0.0577492,-0.204087,-0.227097
-0.00599697,-0.0549214,-0.188944,-0.208106
-0.00583855,-0.0523273,-0.188307,-0.226475
-0.00590769,-0.0510226,-0.17538,-0.205863
-0.00580831,-0.0499994,-0.175639,-0.223148
-0.00577661,-0.049449,-0.163815,-0.201461
-0.00563696,-0.0502121,-0.164703,-0.217713
-0.00538437,-0.0485668,-0.153613,-0.195469
-0.00508608,-0.0487306,-0.1565,-0.210769
-0.00461692,-0.0479883,-0.159591,-0.225637
-0.0040935,-0.0476883,-0.16337,-0.239743
-0.00320467,-0.0476895,-0.167112,-0.253412
-0.00224614,-0.0480937,-0.172079,-0.266204
-0.00100028,-0.0488672,-0.176202,-0.27889
0.000321494,-0.0503886,-0.182006,-0.290461
0.00194713,-0.0523169,-0.187986,-0.301522
0.00400652,-0.0500424,-0.17897,-0.275605
0.00579885,-0.046991,-0.16972,-0.250461
0.00713072,-0.0458638,-0.158516,-0.226598
0.0085927,-0.0435559,-0.147503,-0.203375
0.0100052,-0.0393507,-0.137502,-0.180478
0.0110345,-0.033787,-0.126698,-0.159039
0.0116901,-0.0292992,-0.114618,-0.138765
0.0121417,-0.0233618,-0.101996,-0.120073
0.0122768,-0.0171912,-0.089727,-0.101849
0.0124027,-0.00995306,-0.0777393,-0.0843542
0.0125421,-0.001582,-0.0667582,-0.0672856
0.0126193,0.0069085,-0.0556158,-0.0510089
0.0125483,0.015018,-0.0447163,-0.0350031
0.0123944,0.0231231,-0.0337026,-0.0196369
0.0121171,0.0135409,-0.042981,-0.0338207
0.0118243,0.0212062,-0.031669,-0.0183781
0.011459,0.0284743,-0.0200059,-0.00346596
0.0110985,0.0348155,-0.00800096,0.0110537
0.0107482,0.025085,-0.0184915,-0.00325195
0.0103805,0.0130478,-0.027495,-0.0163347
0.0102156,0.00212924,-0.0370287,-0.0291489
0.0100057,-0.00933242,-0.0450126,-0.0420324
0.00953346,-0.021192,-0.0529324,-0.0541129
0.00873079,-0.0348028,-0.051539,-0.0668451
0.0063818,-0.0191868,-0.0545902,-0.0521117
0.00425142,-0.0297331,-0.0427611,-0.0411692
0.00241587,-0.0135923,-0.0462652,-0.054229
0.000710478,0.00367024,-0.0503926,-0.0663834
-0.000732151,-0.00633646,-0.0421647,-0.0507741
-0.00116177,-0.0162983,-0.0308355,-0.0366017
-0.00117487,-0.0251954,-0.0187309,-0.0226431
-0.00104785,-0.0321805,-0.00530199,-0.00917727
-0.000994607,-0.0393098,0.00767228,0.00408236
-0.00103637,-0.0448205,0.0211722,0.0170245
-0.00115751,-0.0509546,0.0337289,0.0300393
-0.00134081,-0.0567369,0.0462132,0.0427106
-0.00171577,-0.0617813,0.0587771,0.0551458
-0.00233834,-0.0656366,0.0711491,0.0677649
-0.00323522,-0.0588264,0.0571318,0.0526166
-0.00410661,-0.0535347,0.0432322,0.0375563
-0.00474465,-0.0545507,0.0562469,0.0512254
-0.00534586,-0.0550521,0.0692148,0.0645086
-0.00593393,-0.0549824,0.0816266,0.0778865
-0.00645443,-0.0539096,0.0942158,0.0907386
-0.00704667,-0.0519152,0.106442,0.103436
-0.00766438,-0.0505562,0.0912127,0.087325
-0.00812767,-0.0502613,0.0763511,0.0715376
-0.00834151,-0.0452448,0.087936,0.0851058
-0.00851828,-0.0445159,0.0725465,0.0698467
-0.00845156,-0.0393476,0.0839261,0.0832262
-0.00817704,-0.0347262,0.0953882,0.0962456
-0.00777677,-0.0299923,0.106481,0.108975
-0.00752046,-0.0257968,0.117782,0.12114
-0.00740233,-0.0271727,0.101667,0.105104
-0.00730332,-0.0325567,0.0864879,0.0900432
-0.00707018,-0.0189372,0.0819277,0.103479
-0.00456309,-0.00781681,0.0758343,0.117989
-0.00135902,-0.0237642,0.0863534,0.124337
-0.000437769,-0.0369056,0.097035,0.133542
-0.0024425,-0.0455266,0.108155,0.143293
-0.00342632,-0.048763,0.118369,0.154997
-0.00334598,-0.0508049,0.129404,0.166025
-0.00391414,-0.0500808,0.14016,0.177359
-0.00509616,-0.0482122,0.122699,0.161098
-0.00594193,-0.0418938,0.13276,0.173322
-0.00636692,-0.0346122,0.142477,0.185088
-0.00643691,-0.0280113,0.152119,0.196534
-0.00646518,-0.02169,0.161193,0.207949
-0.0063761,-0.0165245,0.17024,0.219072
-0.00620118,-0.0119428,0.1788,0.230222
-0.00600952,-0.00767517,0.187282,0.241041
-0.00590158,-0.00354459,0.195545,0.251653
-0.00578902,0.00133158,0.203713,0.261861
-0.00572075,0.0070332,0.211536,0.271703
-0.00573629,0.0167325,0.218073,0.280305
-0.00568796,0.0294355,0.208834,0.289136
-0.00217458,0.0414726,0.200299,0.297295
0.00238672,0.0290958,0.214144,0.301274
0.00301799,0.0100591,0.22269,0.307774
-0.000661956,0.00941939,0.208003,0.287138
-0.00137836,0.0102844,0.191349,0.267144
-0.00244774,0.0108737,0.173849,0.247654
-0.0045061,0.00851599,0.156352,0.229721
-0.00596994,0.00183847,0.144307,0.210874
-0.0063247,0.00976371,0.153094,0.221569
-0.00666828,0.0150948,0.162723,0.231683
-0.00703923,0.0200034,0.171911,0.241834
-0.00716538,0.0236187,0.181341,0.251608
-0.00723851,0.0276664,0.190915,0.26082
-0.00720262,0.0325749,0.200148,0.269752
-0.0070978,0.0296188,0.182932,0.250338
-0.00700376,0.025791,0.166242,0.231402
-0.00677139,0.0201508,0.150353,0.213088
-0.00663462,0.0116761,0.135615,0.195895
-0.00652232,0.0269374,0.135452,0.204449
-0.00546589,0.0395979,0.128452,0.214497
-0.00288806,0.0477195,0.12953,0.226075
-0.0010038,0.0332739,0.140313,0.235223
-0.0031239,0.0229565,0.152645,0.243692
-0.00267904,0.0245271,0.139455,0.223486
-0.00201381,0.0259403,0.125108,0.204196
-0.00227606,0.0279343,0.110188,0.18545
-0.00307726,0.0280949,0.122293,0.19533
-0.00445427,0.0270293,0.107212,0.176529
-0.00540393,0.031538,0.118467,0.186835
-0.00611731,0.0364596,0.12931,0.196912
-0.00668549,0.0337366,0.112817,0.179306
-0.00686377,0.0304824,0.0963293,0.162428
-0.00670493,0.025015,0.0805349,0.14636
-0.0059086,0.0208345,0.0651857,0.129896
-0.00490959,0.0272753,0.0755152,0.141704
-0.00360436,0.019779,0.0619696,0.125542
-0.00275648,0.0246134,0.0723215,0.137936
-0.00225092,0.0318125,0.0810437,0.150394
-0.00149798,0.0382939,0.0885374,0.163411
-0.00102891,0.0432571,0.0960818,0.17645
-0.000604133,0.0477521,0.103919,0.18911
-0.000326443,0.0512504,0.110553,0.202436
-0.000350749,0.0534592,0.117065,0.215797
-0.00034462,0.0547479,0.124023,0.228749
-0.000620829,0.0553797,0.131392,0.241257
-0.00107722,0.0551747,0.138995,0.253471
-0.0014477,0.0502459,0.125216,0.232729
-0.0013482,0.0497043,0.13149,0.245971
-0.00107157,0.0504243,0.13708,0.259039
-0.000764772,0.0470612,0.122978,0.238032
-0.000909705,0.0436332,0.109467,0.217317
-0.000687676,0.0402153,0.097991,0.196176
-0.000222895,0.0367465,0.0876295,0.175058
0.000144495,0.0336665,0.0774065,0.154316
0.000581775,0.0351427,0.0813612,0.170327
0.00142195,0.0334072,0.071406,0.149379
0.00198454,0.0312486,0.061623,0.128905
0.00237562,0.0295328,0.053772,0.10823
0.00265777,0.0280691,0.0465038,0.0878148
0.00284166,0.0266067,0.0400997,0.0675601
0.00303724,0.0254938,0.0343647,0.0474751
0.0031779,0.0240756,0.0287532,0.0277203
0.00325956,0.0231957,0.0236429,0.00821073
0.00331603,0.0238188,0.0269014,0.0273899
0.00341843,0.0243886,0.0292103,0.0463394
0.00353062,0.0235811,0.0263758,0.0261816
0.00375355,0.0244975,0.0241501,0.00631147
0.0038328,0.0236587,0.0213312,-0.0129461
0.00385758,0.0238476,0.0237082,0.0070257
0.0038957,0.0230995,0.0250661,0.0266616
0.00388046,0.0232903,0.0277259,0.0456842
0.00385677,0.0240029,0.0257062,0.0254372
0.00380708,0.024212,0.0231112,0.00554272
0.00373475,0.0253069,0.0202472,-0.0139581
0.00375358,0.0271403,0.0172347,-0.0329332
0.00390612,0.026396,0.0135206,-0.0515457
0.004193,0.0272092,0.0107497,-0.0698792
0.00466417,0.0267846,0.0130079,-0.0489366
0.00500405,0.0261885,0.0153582,-0.028453
0.00522399,0.026303,0.0168495,-0.008283
0.0052607,0.0264142,0.0176952,0.0115605
0.00511245,0.0264412,0.018319,0.0310308
0.004802,0.0265715,0.0185393,0.0501479
0.00443668,0.0269542,0.0180766,0.0689031
0.0041529,0.0271313,0.0156708,0.0872876
0.00387088,0.0251831,0.0150722,0.105597
0.00375681,0.0232043,0.0144883,0.123312
0.00370015,0.021729,0.0140498,0.140596
0.00364387,0.0205928,0.0136693,0.157489
0.00362187,0.0207231,0.0133608,0.134815
0.00358526,0.0196703,0.0130145,0.151794
0.00350813,0.0187972,0.0127697,0.168432
0.00346808,0.0179041,0.0124973,0.184741
0.00340693,0.016901,0.0121209,0.200722
0.00334117,0.0160177,0.0118892,0.216401
0.0032147,0.0150949,0.0114905,0.231768
0.00318269,0.0141991,0.0111542,0.24683
0.0030744,0.0133397,0.0108705,0.261599
0.00298424,0.0123679,0.0106644,0.276074
0.00286381,0.0116321,0.0103318,0.290271
0.00281681,0.0108467,0.0101123,0.304183
0.00267186,0.0100409,0.00977868,0.317824
0.0026075,0.00933313,0.00953734,0.331199
0.00249479,0.00866792,0.00929826,0.344313
0.00249606,0.00786232,0.00905333,0.357166
0.00248318,0.00769052,0.0072067,0.369714
0.000984758,0.0105032,0.00542112,0.382044
4.83664e-05,0.0119265,0.00461607,0.394127
-0.000336183,0.0123282,0.004285,0.405988
-0.000651675,0.0125373,0.00396059,0.417625
-0.000790656,0.0124954,0.00355792,0.429036
-0.000717302,0.012239,0.00338457,0.440232
-0.000711177,0.0120132,0.0030714,0.451207
-0.000714329,0.0115998,0.00288923,0.461971
-0.000711106,0.011256,0.00266583,0.472523
-0.000670599,0.0112694,0.00248361,0.443643
-0.000711424,0.0111856,0.00221308,0.415328
-0.000618713,0.0108446,0.00206276,0.426794
-0.000462313,0.010503,0.00189255,0.438033
-0.000199147,0.0101443,0.0017731,0.449055
-0.00032931,0.00983328,0.00156168,0.459859
-0.000377757,0.0093884,0.00143955,0.470453
-0.000372358,0.00896902,0.00118235,0.480839
-0.00032676,0.00851038,0.00106393,0.491021
-0.000269351,0.0081608,0.00105045,0.461781
-0.000226604,0.00776877,0.00102587,0.472336
-0.0002452,0.00746461,0.000939646,0.482684
-0.000155363,0.00722351,0.000928165,0.492828
-0.000150312,0.006997,0.000745497,0.502772
-0.000205572,0.00662484,0.000393074,0.512522
-0.000107195,0.00621693,0.000347383,0.522084
-0.000177922,0.00592636,2.83418e-05,0.531456
-0.000124845,0.00569006,-8.71345e-05,0.540644
-9.1593e-05,0.00547514,-0.000391943,0.54965
2.94414e-05,0.00516633,-0.000501191,0.558482
0.000184577,0.00487236,-0.00064161,0.567141
0.000401808,0.00449224,-0.000614507,0.575629
0.000410379,0.0043284,-0.000861122,0.58395
0.000408317,0.00406455,-0.000888557,0.592108
0.000291005,0.00418281,-0.00104707,0.560883
0.00026487,0.00392347,-0.00121081,0.569494
0.000103146,0.00377223,-0.00129739,0.577936
4.47399e-05,0.00333836,-0.00144839,0.586213
-5.89917e-05,0.00297907,-0.00159672,0.594326
6.03166e-05,0.00254661,-0.00162167,0.602281
-7.23548e-05,0.00231698,-0.00189424,0.610079
5.92043e-05,0.00223677,-0.00202089,0.617724
0.000132844,0.00207706,-0.0022056,0.625219
0.00012915,0.00171203,-0.00220801,0.632567
0.000342363,0.00154347,-0.00219032,0.639771
0.00027405,0.00140501,-0.00254947,0.646833
0.00040055,0.00124983,-0.00263101,0.653758
0.000254826,0.00117874,-0.00281841,0.660547
0.00030951,0.00133448,-0.00280678,0.627982
0.000207,0.00123963,-0.00297821,0.635275
0.000242571,0.00105423,-0.00315272,0.642427
6.37179e-05,0.000776508,-0.00320741,0.649436
4.95629e-06,0.000229118,-0.00322713,0.656308
-5.06821e-05,4.47746e-05,-0.00328558,0.663046
4.02913e-05,-0.000224358,-0.00315689,0.669653
-4.34772e-05,-0.000324748,-0.00303294,0.67613
-7.20844e-05,-0.000503959,-0.00302729,0.682479
-0.000128254,-0.000532166,-0.00315393,0.688704
-7.1999e-05,-0.000451372,-0.00315313,0.655589
-3.72895e-05,-0.00050335,-0.00322844,0.66234
0.00019917,-0.000746687,-0.00334801,0.629744
0.00060956,-0.0011312,-0.00384048,0.636996
0.000841518,0.000171654,-0.00593648,0.605096
-0.00076634,-0.0033512,-0.00285002,0.612371
-0.00550494,-0.00274025,-0.00182047,0.619935
-0.0108023,-0.00160429,-0.00463405,0.627135
-0.0145092,-0.00186956,-0.00265867,0.595297
-0.0162992,-0.000622318,-0.000962188,0.564087
-0.0166362,0.000666322,-0.000697377,0.533425
-0.016474,9.70962e-07,-0.000634619,0.50337
-0.0159013,-0.000404416,-0.00100974,0.473907
-0.0153597,-0.00233023,0.00137557,0.484228
-0.0146062,-0.00350649,0.00669158,0.494312
-0.0125292,-0.00532038,0.014334,0.464985
-0.00982599,-0.00755215,0.0251549,0.474987
-0.00713552,-0.00687899,0.0305099,0.445987
-0.00541516,-0.00334897,0.033369,0.417949
-0.00436525,-0.000171084,0.049158,0.427184
-0.00361583,0.00640446,0.0659865,0.435398
-0.00308317,0.0100144,0.0835804,0.442884
-0.00324672,0.0162248,0.10279,0.448555
-0.00268675,0.0178022,0.0998697,0.421174
-0.00183007,0.0182244,0.0952755,0.394551
-0.0011857,0.0182764,0.087605,0.369465
-0.000452044,0.0171734,0.0781215,0.345445
-0.000127137,0.0204441,0.0909866,0.35349
-8.48126e-05,0.018673,0.0806303,0.330026
-3.27079e-05,0.0213281,0.0931851,0.338617
-0.000433123,0.0202376,0.0816356,0.315899
-0.0016237,0.023444,0.0698186,0.294027
-0.00455406,0.0213286,0.082713,0.302429
-0.0100923,0.0195345,0.0680404,0.282617
-0.0162548,0.0110038,0.0565696,0.263821
-0.0216471,0.000403273,0.0490157,0.245775
-0.0249864,-0.0107206,0.0415059,0.227951
-0.0266831,-0.022207,0.0341719,0.209975
-0.0266619,-0.0330263,0.0268655,0.192049
-0.0257401,-0.0438207,0.0180481,0.175253
-0.0246249,-0.0538617,0.00826845,0.158423
-0.0231801,-0.0628851,-0.00302183,0.141528
-0.021239,-0.0549799,0.00548597,0.153364
-0.0187669,-0.0526104,0.0136318,0.166223
-0.0155516,-0.0545119,0.0204922,0.179224
-0.0117728,-0.0537773,0.00646426,0.158919
-0.00857893,-0.0507848,-0.00621428,0.138768
-0.00647379,-0.0475924,-0.0184007,0.119137
-0.00526971,-0.0436582,-0.0291454,0.0997514
-0.00441708,-0.0404885,-0.0393653,0.0808735
-0.00399756,-0.0373487,-0.0490502,0.0624666
-0.00376017,-0.0342702,-0.058338,0.0445183
-0.0037095,-0.0315071,-0.0674398,0.0269822
-0.00374034,-0.0322723,-0.0559884,0.0431377
-0.00389699,-0.033449,-0.0447598,0.0590819
-0.00391069,-0.0337704,-0.0324765,0.0741932
-0.00374364,-0.034024,-0.0205649,0.0893701
-0.00354372,-0.0339129,-0.00776498,0.103601
-0.00362137,-0.0343083,0.00389738,0.117963
-0.0039938,-0.0335133,-0.00676572,0.0995139
-0.00438457,-0.0326333,0.0047883,0.113846
-0.00465746,-0.0329965,-0.00444806,0.094841
-0.00463323,-0.0330805,-0.0132151,0.0762311
-0.00432296,-0.033535,-0.0242243,0.0597938
-0.00400908,-0.0327541,-0.0347594,0.043512
-0.00356807,-0.0344802,-0.045657,0.0284186
-0.00292367,-0.036711,-0.0610431,0.0192511
-0.00218964,-0.0369989,-0.0763809,0.0103656
-0.00124864,-0.0394129,-0.0917429,0.00303116
-0.000567125,-0.0420278,-0.107146,-0.00369723
-3.96816e-05,-0.0453478,-0.122206,-0.0102463
0.000260916,-0.0494332,-0.137235,-0.0159896
0.000491942,-0.053913,-0.152153,-0.0215461
0.000590692,-0.0577118,-0.166495,-0.0289411
0.000319924,-0.0608912,-0.179607,-0.0394696
2.59293e-05,-0.0627703,-0.190822,-0.0538715
-0.000880393,-0.0572457,-0.172824,-0.0434344
-0.00225496,-0.0582322,-0.183057,-0.0596418
-0.00355747,-0.0572107,-0.191588,-0.0771857
-0.00532559,-0.0547251,-0.198975,-0.0946047
-0.00729053,-0.052026,-0.182424,-0.0800807
-0.00923808,-0.0471298,-0.187951,-0.0980987
-0.0112549,-0.0417955,-0.19102,-0.117323
-0.0119572,-0.0377947,-0.193541,-0.13733
-0.0127444,-0.035191,-0.194682,-0.156674
-0.0134192,-0.0356046,-0.197223,-0.17395
-0.0140481,-0.0353632,-0.184754,-0.154668
-0.0143788,-0.0353824,-0.185589,-0.172544
-0.0145599,-0.035157,-0.173711,-0.152657
-0.0146146,-0.0347721,-0.175035,-0.169877
-0.0144503,-0.0342852,-0.163903,-0.149219
-0.0141381,-0.0335823,-0.153884,-0.128243
-0.0138066,-0.0335698,-0.143932,-0.10777
-0.0133921,-0.0339223,-0.134355,-0.0875432
-0.0128924,-0.0337417,-0.124938,-0.0677899
-0.0121446,-0.0338772,-0.116522,-0.0485458
-0.0114326,-0.0335503,-0.108503,-0.0296162
-0.0111591,-0.0342252,-0.111832,-0.0482699
-0.0107875,-0.03489,-0.114615,-0.0667431
-0.0101872,-0.0355398,-0.106132,-0.0473783
-0.00979528,-0.0359538,-0.108977,-0.0658073
-0.00942296,-0.0362013,-0.111994,-0.0835414
-0.00909511,-0.0347798,-0.104431,-0.0631469
-0.00906278,-0.033091,-0.0972115,-0.042912
-0.0091752,-0.030823,-0.0904894,-0.0231225
-0.00931527,-0.0284463,-0.0837866,-0.00378801
-0.00938606,-0.0263076,-0.077169,0.0152129
-0.00951938,-0.0237201,-0.0707388,0.0338184
-0.00963236,-0.0206295,-0.0643152,0.0520213
-0.00979874,-0.0174355,-0.0576158,0.0697276
-0.00990916,-0.0142651,-0.051314,0.0871644
-0.0101311,-0.0110197,-0.0451131,0.104217
-0.0104167,-0.00716049,-0.0385969,0.120775
-0.0109231,-0.0110254,-0.0425401,0.0999539
-0.0112864,-0.0149312,-0.0465315,0.0795974
-0.0115617,-0.0193279,-0.0501901,0.0597423
-0.0116625,-0.0236492,-0.0538616,0.0403005
-0.011558,-0.0279736,-0.0572726,0.0211782
-0.0112288,-0.0324346,-0.0618295,0.00290123
-0.0109179,-0.0368262,-0.0664549,-0.0151027
-0.0105184,-0.0407773,-0.0708577,-0.0330729
-0.0100502,-0.0358658,-0.0640018,-0.014228
-0.00962224,-0.0318589,-0.0574593,0.00431593
-0.00931272,-0.03531,-0.0609243,-0.0147243
-0.00908087,-0.0384114,-0.0638496,-0.0335242
-0.00886645,-0.0415405,-0.0669855,-0.0518133
-0.00888341,-0.0370117,-0.0608598,-0.0321946
-0.00885539,-0.0329282,-0.0551213,-0.012835
-0.00870277,-0.028415,-0.0496384,0.00594358
-0.00833977,-0.0252871,-0.0451247,0.0246754
-0.007805,-0.0222123,-0.0401029,0.0429378
-0.007103,-0.0189269,-0.0345258,0.0609416
-0.00610563,-0.0186765,-0.0389464,0.0409959
-0.00527041,-0.018513,-0.043847,0.0213791
-0.00462223,-0.0178505,-0.0376871,0.0397042
-0.00378795,-0.0162722,-0.041748,0.0197547
-0.0032029,-0.0162044,-0.0370255,0.038335
-0.00235617,-0.0143299,-0.0412098,0.0184864
-0.00188168,-0.0106383,-0.0447119,-0.000847856
-0.00174818,-0.0131707,-0.040291,0.0182135
-0.0013709,-0.00912877,-0.043605,-0.000979144
-0.00119882,-0.0114098,-0.0395449,0.0182005
-0.000805697,-0.0145712,-0.034682,0.036711
-0.000289869,-0.0175816,-0.0300002,0.0549782
0.000481088,-0.021027,-0.0257419,0.072916
0.00142516,-0.0245081,-0.0202821,0.0903321
0.00265105,-0.0284659,-0.0151903,0.107358
0.00424814,-0.0332625,-0.00989126,0.123675
0.00628905,-0.0257454,-0.0115044,0.103082
0.00784123,-0.0172078,-0.0143154,0.0835525
0.00898176,-0.0090741,-0.017259,0.064349
0.00970885,0.000682862,-0.0206939,0.0464711
0.010129,0.0104813,-0.024197,0.02911
0.0101852,0.0206487,-0.0278074,0.0124295
0.0100145,0.0306071,-0.0314006,-0.00396233
0.00960279,0.040051,-0.0354508,-0.0201271
0.00914494,0.0493188,-0.0389733,-0.0360507
0.00873048,0.0389839,-0.0329655,-0.0189514
0.00843936,0.0474628,-0.0372434,-0.0351571
0.00822316,0.055938,-0.0413932,-0.0509853
0.00809784,0.0643746,-0.0454897,-0.0664331
0.00820276,0.0721968,-0.048689,-0.0820928
0.00878082,0.0800884,-0.0518766,-0.0972844
0.00994849,0.0875103,-0.0547678,-0.112407
0.0118368,0.0951361,-0.0569758,-0.127115
0.0144196,0.101463,-0.0591523,-0.142057
0.017582,0.0917349,-0.0527226,-0.121855
0.0202925,0.0984524,-0.0544232,-0.136713
0.0234225,0.102461,-0.0570085,-0.152089
0.0272005,0.107004,-0.0590582,-0.166878
0.0315032,0.0989696,-0.0545035,-0.144782
0.0354254,0.0910326,-0.0509725,-0.122693
0.0387153,0.0909097,-0.0558815,-0.138279
0.042072,0.0889563,-0.0609931,-0.153885
0.0454231,0.0845495,-0.0668232,-0.169017
0.0482833,0.0797697,-0.0610709,-0.146669
0.0501866,0.0754042,-0.0680407,-0.161734
0.0520175,0.0745044,-0.0619796,-0.139662
0.0529985,0.0753206,-0.0554852,-0.118702
0.0531738,0.0762325,-0.0490714,-0.0980445
0.0527007,0.0774376,-0.0423926,-0.0779815
0.0518173,0.0792516,-0.0351772,-0.0586834
0.0508563,0.0815738,-0.0277475,-0.0400517
0.0499015,0.084376,-0.020665,-0.0218341
0.0489314,0.0877764,-0.0135895,-0.00410502
0.0478899,0.0910415,-0.00654793,0.0133505
0.0468084,0.0836372,-0.0139222,-0.00453726
0.0458407,0.0870629,-0.00739092,0.0129377
0.0449171,0.0909405,-0.000478125,0.0296691
0.0440897,0.0833702,-0.0080839,0.0112246
0.0434983,0.0746676,-0.0155711,-0.00672129
0.0432499,0.0657607,-0.0223137,-0.024489
0.0432476,0.056413,-0.0271027,-0.0419885
0.0432713,0.0615883,-0.0233536,-0.0234341
0.0436151,0.066594,-0.0194316,-0.00476582
0.0441681,0.0699256,-0.0169261,0.0140158
0.0448402,0.0639329,-0.019977,-0.00539284
0.0451191,0.0666497,-0.0172605,0.0127413
0.0455969,0.0689414,-0.0149549,0.0311315
0.0462005,0.0710464,-0.0132577,0.0489086
0.0468027,0.0745865,-0.012113,0.0661295
0.0473762,0.0758032,-0.0111464,0.0835091
0.0477627,0.0681356,-0.0113728,0.0626032
0.0479302,0.0616293,-0.0117348,0.0416949
0.0479151,0.0554364,-0.0116006,0.0212855
0.047676,0.049465,-0.0114016,0.00146329
0.0471535,0.0449153,-0.0103823,-0.0180565
0.046383,0.040907,-0.00959015,-0.037137
0.0451966,0.0436762,-0.00751091,-0.0171951
0.0439879,0.0455811,-0.00541775,0.00256896
0.0427775,0.0466676,-0.00233578,0.0220599
0.0415283,0.0475363,0.00454648,0.0401769
0.0404168,0.0441974,0.00531137,0.0195428
0.0393366,0.0451233,-0.000616367,0.000333128
0.0378642,0.0437814,-0.00890335,-0.0171456
0.0362775,0.0459641,-0.00419268,0.00168504
0.0349473,0.0493383,0.00355747,0.018989
0.0338172,0.052937,0.0106737,0.0360926
0.0326176,0.0563351,0.0183407,0.0530473
0.0313014,0.0578035,0.0260062,0.0701656
0.0297731,0.05825,0.0334308,0.0872332
0.0280293,0.059966,0.0416943,0.103343
0.0260838,0.0622823,0.0491761,0.119317
0.0241861,0.0657163,0.0553009,0.13511
0.0227348,0.0666954,0.0582246,0.152091
0.0216253,0.0663033,0.0619446,0.169069
0.0209893,0.0639838,0.0652368,0.185961
0.0203101,0.063467,0.0672119,0.202453
0.0196642,0.0614884,0.0692224,0.218874
0.0202432,0.0579731,0.0612644,0.197105
0.0213559,0.0553549,0.0552893,0.175207
0.022415,0.0490935,0.0553673,0.19215
0.0237407,0.0413197,0.057029,0.208386
0.0247716,0.0402852,0.0535178,0.186026
0.0255442,0.0416552,0.0504827,0.16435
0.0261068,0.0306818,0.0505511,0.179982
0.0266502,0.0348757,0.0480664,0.159014
0.0264382,0.0372792,0.0452427,0.137882
0.0259932,0.044354,0.0415321,0.118347
0.0249316,0.0485706,0.0377175,0.097628
0.0234743,0.0417398,0.0365476,0.114707
0.0216499,0.0466415,0.0327807,0.0940244
0.020065,0.0517747,0.0292034,0.0738274
0.0189196,0.0478394,0.0309472,0.0914901
0.0177268,0.0509316,0.0255,0.0706684
0.017128,0.0531947,0.0224197,0.0498952
0.0171153,0.0497436,0.0242399,0.0675998
0.0164368,0.0508648,0.0209961,0.0465407
0.0160312,0.0501046,0.0236596,0.0646068
0.0157749,0.0494748,0.0205156,0.0435289
0.0157692,0.0508749,0.0188734,0.061929
0.016198,0.0468466,0.0182136,0.079728
0.0172201,0.0465222,0.0197225,0.0974779
0.0182927,0.0490362,0.01992,0.11443
0.0181894,0.0517876,0.0217285,0.130773
0.0175196,0.0509286,0.0212147,0.108314
0.0167727,0.0527026,0.0229329,0.125374
0.0159067,0.0536517,0.0261284,0.141691
0.0148011,0.0592071,0.0276095,0.157148
0.015007,0.0623971,0.0291372,0.172498
0.0148513,0.0701781,0.0281101,0.186872
0.0151752,0.0808913,0.0274787,0.199704
0.0151771,0.0761036,0.0262365,0.175969
0.0148344,0.0807947,0.0301286,0.190748
0.0167151,0.0780881,0.0337293,0.204286
0.0190868,0.0865014,0.0320812,0.178528
0.0199209,0.0916604,0.0290907,0.154028
0.020248,0.094053,0.0320834,0.167422
0.0194123,0.0859913,0.029793,0.145897
0.0183117,0.101066,0.0285526,0.156376
0.0176586,0.114676,0.0286345,0.166719
0.0185144,0.127934,0.0313729,0.176053
0.0222781,0.133996,0.0300453,0.147927
0.0255069,0.1398,0.0282227,0.119913
0.0263206,0.143214,0.0261243,0.0951539
0.0260197,0.150459,0.025651,0.107001
0.0250081,0.159546,0.0244769,0.117335
0.0244621,0.17261,0.0222537,0.124824
0.0240831,0.163118,0.0185268,0.100252
0.024115,0.172829,0.0190452,0.109229
0.0239435,0.17468,0.0174479,0.0800834
0.0240866,0.170589,0.0225528,0.0893643
0.0249622,0.171518,0.0246871,0.102325
0.0258953,0.178502,0.0238301,0.112798
0.0264909,0.191433,0.0213067,0.119377
0.0265595,0.181073,0.0169058,0.0935745
0.0263232,0.167571,0.014498,0.0723668
0.0260764,0.175784,0.0160026,0.0825135
0.02601,0.175425,0.021506,0.0927932
0.0264507,0.17787,0.0193915,0.0640181
0.0267727,0.176967,0.0218758,0.0768442
0.0272944,0.186287,0.0210449,0.0858583
0.0279662,0.175097,0.016512,0.0608306
0.0279634,0.184882,0.0164471,0.0711594
0.027261,0.19389,0.0178103,0.0800018
0.0270206,0.1985,0.0163149,0.0517357
0.025717,0.199434,0.0125151,0.0231416
0.0241767,0.199263,0.00817251,-0.00138855
0.0240628,0.194487,0.000291377,-0.0265853
0.0251199,0.178352,-0.00334176,-0.0495687
0.0275963,0.160927,-0.00699854,-0.0716098
0.028606,0.16788,-0.00700983,-0.0598376
0.0279153,0.175223,-0.00496005,-0.043003
0.0274889,0.182084,-0.0029641,-0.0255056
0.0272715,0.188843,-0.0012728,-0.00912367
0.027008,0.196144,0.000356543,0.0065917
0.0263907,0.20285,0.00194202,0.0229483
0.0256767,0.18858,0.00105472,0.00693591
0.0247726,0.19474,0.00389505,0.0253163
0.0237423,0.199948,0.00646968,0.0440458
0.0227947,0.203392,0.0095585,0.0633179
0.022158,0.206828,0.0145514,0.0817214
0.0220034,0.210408,0.0189706,0.0989579
0.0225379,0.210975,0.0229465,0.117401
0.0227533,0.210798,0.0281953,0.136148
0.0223426,0.200323,0.0246798,0.117454
0.0232108,0.192663,0.0220431,0.0966202
0.0233345,0.182165,0.0162004,0.076736
0.0228639,0.172503,0.00860183,0.0570409
0.0224141,0.177817,0.0107536,0.0730526
0.0214889,0.184352,0.014014,0.0881329
0.0205157,0.173727,0.00922534,0.0696581
0.0201616,0.178234,0.0136918,0.0872069
0.020884,0.172275,0.0121415,0.0670551
0.0231578,0.161578,0.0153084,0.0487866
0.0226194,0.164214,0.0173208,0.033274
0.0231414,0.15596,0.0182113,0.0171905
0.0258696,0.160038,0.0181407,0.0337763
0.0268243,0.164725,0.0203499,0.0501463
0.026524,0.167664,0.0220678,0.0685701
0.0261506,0.169661,0.0229796,0.0867594
0.0256216,0.171481,0.0243589,0.104409
0.0249672,0.173247,0.0263079,0.121611
0.024219,0.175553,0.0283948,0.138064
0.0236953,0.177472,0.0298255,0.15407
0.0231711,0.179615,0.0313707,0.169716
0.0225725,0.18052,0.0330619,0.185665
0.0217365,0.181884,0.0350044,0.201273
0.0209097,0.182621,0.0365843,0.216757
0.0200588,0.183006,0.0385258,0.232211
0.0192473,0.18283,0.0400221,0.247471
0.0185905,0.182903,0.0412647,0.262213
0.0179189,0.182608,0.042695,0.276638
0.0172752,0.182521,0.0441157,0.290681
0.0165112,0.183025,0.0451291,0.304205
0.0156132,0.18334,0.0461754,0.317447
0.0142764,0.182942,0.0473828,0.330811
0.0125198,0.183578,0.0487328,0.343548
0.0107184,0.183563,0.0501567,0.356031
0.00847248,0.183427,0.0519927,0.368452
0.00633596,0.183599,0.0533652,0.380329
0.00357938,0.183136,0.0550144,0.392316
0.000418293,0.184198,0.0569803,0.403513
-0.00245504,0.185472,0.0577149,0.414416
-0.00523063,0.186016,0.0589228,0.425284
-0.00815641,0.186652,0.0612823,0.435796
-0.0106239,0.18779,0.0631392,0.445985
-0.0125678,0.189367,0.0637007,0.455962
-0.0139476,0.191555,0.0640255,0.465557
-0.0153526,0.194305,0.0643799,0.474779
-0.015993,0.195507,0.0641911,0.484319
-0.0166711,0.195397,0.0648893,0.494178
-0.0174872,0.195074,0.0654978,0.503883
-0.0185528,0.193701,0.0673642,0.513679
-0.0190694,0.184367,0.0642139,0.485157
-0.0190352,0.18296,0.0657317,0.495365
-0.0194777,0.174407,0.068321,0.507063
-0.020215,0.170914,0.0711822,0.516968
-0.0214945,0.163722,0.0766379,0.527531
-0.0220651,0.160697,0.0804384,0.536726
-0.0224946,0.15918,0.0818657,0.545611
-0.0229718,0.152573,0.0762093,0.515929
-0.0235733,0.146835,0.0707775,0.486634
-0.0234335,0.143053,0.0642379,0.45758
-0.0232052,0.144789,0.0628045,0.467697
-0.0230095,0.147024,0.0616511,0.477473
-0.0228388,0.147945,0.059885,0.4875
-0.0218674,0.146033,0.055861,0.498306
-0.0206397,0.145881,0.0532782,0.508326
-0.0194842,0.144721,0.0510326,0.518304
-0.0184533,0.14448,0.0501504,0.527713
-0.0176,0.144257,0.0493033,0.536929
-0.0167679,0.144322,0.0505997,0.545669
-0.0160975,0.147166,0.0544631,0.553339
-0.0151223,0.141494,0.0528482,0.523049
-0.0140017,0.141931,0.0551121,0.531888
-0.0124748,0.141272,0.0549624,0.541049
-0.0106948,0.138992,0.0540482,0.550459
-0.00851399,0.135977,0.0539511,0.559817
-0.00674003,0.13083,0.0560629,0.569055
-0.00524949,0.127565,0.0580336,0.577764
-0.00349983,0.125101,0.0601484,0.586062
-0.00267579,0.122466,0.0630825,0.594047
-0.00271312,0.122652,0.0663839,0.601354
-0.00343193,0.124884,0.0686537,0.608266
-0.00452188,0.131028,0.0695496,0.614443
-0.0064233,0.137605,0.0707507,0.62031
-0.00820042,0.141669,0.0716528,0.626555
-0.00931575,0.136749,0.0674182,0.594862
-0.0102677,0.138972,0.0692211,0.601931
-0.0108844,0.133573,0.0645995,0.570887
-0.0109989,0.135407,0.0657845,0.578604
-0.011098,0.139122,0.0662458,0.585813
-0.0106179,0.144342,0.0662931,0.592483
-0.00928608,0.152963,0.0655797,0.597838
-0.00599759,0.164003,0.0593096,0.601918
0.00024046,0.168154,0.051833,0.608473
0.00862679,0.154701,0.0521549,0.617988
0.016081,0.148284,0.05154,0.587405
0.0222758,0.146782,0.049375,0.595367
0.0262633,0.149057,0.045903,0.602608
0.0273491,0.14829,0.0466817,0.610196
0.0254951,0.147881,0.049373,0.617569
0.0219403,0.147917,0.053319,0.624669
0.017123,0.139907,0.0526412,0.59363
0.0119346,0.132142,0.0518251,0.563139
0.00764509,0.13416,0.055468,0.570847
0.00446412,0.137953,0.0573814,0.578109
0.00210159,0.142835,0.0586544,0.584976
0.000878567,0.146975,0.058631,0.591968
-9.03623e-06,0.150828,0.0589017,0.598833
-0.00080342,0.155496,0.0588743,0.605317
-0.00100758,0.161872,0.0592332,0.610937
0.00124636,0.149171,0.0568434,0.582973
0.00683011,0.146617,0.0536949,0.552114
0.0163242,0.164986,0.0472081,0.520369
0.0155077,0.167783,0.0578575,0.526388
0.0162122,0.17169,0.0555691,0.534279
0.0176732,0.168559,0.0491834,0.503769
0.0174945,0.173244,0.0476264,0.511934
0.0152,0.168743,0.0444463,0.482026
0.0131206,0.169594,0.0469679,0.491391
0.0114927,0.162833,0.0445703,0.462595
0.0102154,0.162887,0.0478833,0.472608
0.00947337,0.156434,0.0453108,0.444065
0.00905873,0.150065,0.0421369,0.416203
0.00893001,0.144132,0.0386589,0.38887
0.00884966,0.138491,0.0351407,0.361986
0.0087947,0.132457,0.0314952,0.335788
0.0087351,0.132373,0.0345724,0.348407
0.00861094,0.12626,0.0307122,0.322674
0.00826443,0.12088,0.0265718,0.297064
0.00780225,0.116246,0.0227749,0.271837
0.00761631,0.110899,0.019287,0.24728
0.00741038,0.105397,0.0153587,0.223474
0.00714848,0.099862,0.0118391,0.200107
0.00694957,0.101017,0.0158969,0.215113
0.00679176,0.0950164,0.0119986,0.192156
0.00696064,0.0898621,0.00847763,0.169345
0.0071784,0.0846009,0.00494171,0.147057
0.00724694,0.085267,0.0080062,0.163513
0.00740574,0.0804168,0.00459942,0.141296
0.00758616,0.0758556,0.00164439,0.119479
0.00781809,0.0712093,-0.00146368,0.0980373
0.00810551,0.066932,-0.0040096,0.0768478
0.00840249,0.0683383,-0.00187255,0.0945629
0.00899191,0.0688859,0.000647312,0.112126
0.0097782,0.0653466,-0.00166998,0.0903949
0.0106096,0.0617614,-0.00372877,0.069205
0.011186,0.0616828,-0.00117816,0.0876214
0.0118106,0.0613513,0.00148909,0.105627
0.0125919,0.0610825,0.00379023,0.123107
0.0137466,0.0604987,0.00575115,0.140238
0.0152208,0.0584932,0.00418378,0.118118
0.016728,0.0569037,0.00304586,0.0967199
0.0176331,0.0558761,0.00162978,0.0753189
0.0182162,0.0545156,0.00379213,0.09319
0.0189903,0.0531256,0.00579987,0.110635
0.0200531,0.053112,0.00449095,0.0886442
0.0207349,0.0530485,0.00362694,0.0670451
0.0210404,0.0523654,0.00285553,0.045902
0.0210333,0.051231,0.00446534,0.0643286
0.0210422,0.0499664,0.00631845,0.0824038
0.0211003,0.0487787,0.00799306,0.100147
0.0211374,0.0475931,0.0103533,0.117494
0.0212343,0.0474629,0.00838111,0.0955309
0.0212823,0.0465406,0.0111403,0.112928
0.0215546,0.0464957,0.0092242,0.0910498
0.0218279,0.0471738,0.00762577,0.0696252
0.0218209,0.0459488,0.00925438,0.0876609
0.0217178,0.0447873,0.0109175,0.105371
0.0214062,0.0445178,0.00887364,0.0837572
0.0209452,0.044901,0.00702361,0.062594
0.0204038,0.0439451,0.00484009,0.0418728
0.0198413,0.0429714,0.0072562,0.0605232
0.0192703,0.0419545,0.00952247,0.0788169
0.0186486,0.0411377,0.0118877,0.096731
0.0180238,0.041159,0.00885876,0.0754715
0.0173695,0.0398519,0.0120592,0.0934382
0.0167212,0.0395379,0.00876368,0.0724335
0.0161373,0.0384673,0.0123868,0.090363
0.0155687,0.0385478,0.00891369,0.0693109
0.0150321,0.03747,0.0130118,0.0871605
0.0144879,0.0361753,0.0169292,0.104616
0.0138962,0.0349199,0.0210697,0.121667
0.0132364,0.03523,0.0168557,0.100255
0.0125679,0.0334191,0.0221506,0.117258
0.0118737,0.0324017,0.027759,0.133724
0.0111645,0.0330416,0.0227366,0.112122
0.0104393,0.0318827,0.0289242,0.128483
0.00975122,0.0311799,0.0354828,0.144308
0.00895164,0.0305807,0.0423361,0.159624
0.00812912,0.0300772,0.0357584,0.137735
0.00724513,0.0288513,0.043596,0.152901
0.00635326,0.0274622,0.0355743,0.13194
0.00573835,0.0265497,0.0272082,0.111375
0.00532684,0.0255507,0.034802,0.127116
0.00497499,0.0250513,0.0260795,0.106762
0.00474144,0.0242715,0.0335055,0.122623
0.00456314,0.0231064,0.0407257,0.138192
0.00439991,0.0224619,0.0479245,0.153392
0.00423625,0.0214042,0.0385012,0.13267
0.00415733,0.0207668,0.0459318,0.147852
0.00418757,0.0201582,0.0535644,0.162484
0.00437053,0.0199598,0.0583149,0.177966
0.00468309,0.0196505,0.0486119,0.156576
0.00504985,0.0186288,0.0324967,0.139059
0.00547905,0.027944,0.0450851,0.134537
0.00824955,0.0398293,0.0264016,0.144198
0.0109652,0.0369476,0.016566,0.123025
0.0105864,0.0410665,0.0165087,0.0994622
0.0104293,0.0422671,0.0161001,0.115714
0.0100937,0.0431899,0.0156124,0.0931737
0.0098661,0.0430571,0.0152004,0.0713945
0.00967234,0.0423983,0.0147657,0.0502081
0.00948848,0.0417327,0.0144997,0.0687357
0.00931318,0.0410178,0.0142292,0.0477314
0.00914015,0.0403079,0.0139509,0.0271675
0.00898297,0.0395354,0.013709,0.00701519
0.00881596,0.0387373,0.0135846,0.0264805
0.0086511,0.0379841,0.0132681,0.00635722
0.00848307,0.0373024,0.0130127,0.0258474
0.00832053,0.0365641,0.0127043,0.00573791
0.00816098,0.0358127,0.0123731,-0.0139704
0.0080101,0.0351712,0.0121305,0.00591813
0.00785863,0.0345569,0.0119153,0.0254237
0.00770988,0.0337885,0.0115749,0.00532475
0.00756788,0.0331523,0.0113449,-0.0143838
0.00742247,0.0325155,0.0111832,0.00551286
0.00729223,0.0318587,0.0108209,-0.0141961
0.00715695,0.0312989,0.0106374,0.00569327
0.00702739,0.0307779,0.0105126,0.0251921
0.00689094,0.0300594,0.0103285,0.00510122
0.00676067,0.0294153,0.0100271,-0.0145991
0.00662858,0.0287253,0.00981118,-0.0339167
0.00651186,0.0282318,0.00967047,-0.0528584
0.00639035,0.0277179,0.00954632,-0.0322124
0.00628196,0.027255,0.00944305,-0.0511837
0.00616111,0.0266897,0.00898777,-0.0305723
0.00605085,0.0261368,0.00903049,-0.0495774
0.00591211,0.0255874,0.0086911,-0.0289903
0.0058016,0.02506,0.00846507,-0.00881481
0.00569348,0.0261192,0.00756877,0.0108965
0.00566123,0.0263706,0.00687262,0.0302201
0.00558424,0.025315,0.00656533,0.049241
0.00540341,0.0245944,0.00596901,0.0678978
0.00527338,0.0240515,0.00559087,0.0469754
0.00524543,0.0231069,0.00513244,0.0264451
0.00508445,0.0234354,0.00582285,0.00631238
0.00494342,0.0228635,0.00579278,0.0258115
0.00481909,0.0223439,0.00554269,0.00570297
0.00471512,0.0211411,0.00554713,0.0251888
0.00456837,0.0207589,0.00534675,0.00509862
0.00447111,0.0203928,0.00528148,0.0246165
0.00438175,0.0198035,0.00518359,0.0437468
0.00430381,0.0194063,0.00525005,0.0624994
0.00422278,0.0189948,0.00531182,0.0808805
0.00416457,0.0186481,0.00521375,0.0988992
0.00410058,0.0181869,0.00517444,0.116569
0.00402677,0.0178623,0.00499237,0.0946776
0.00397288,0.0175634,0.00486545,0.0732133
0.003917,0.0172062,0.00468993,0.052172
0.0038516,0.0168857,0.00454995,0.03154
0.00378034,0.0165249,0.00436048,0.0113175
0.00370922,0.0160918,0.00440944,0.0307041
0.00361309,0.0153893,0.00445116,0.0497163
0.00349953,0.0147528,0.00472991,0.0683664
0.0033466,0.0143533,0.00432666,0.0474293
0.0032102,0.0141047,0.00521106,0.0660721
0.00305972,0.0136848,0.0066797,0.084314
0.00291499,0.00704169,-0.0059973,0.0692699
0.00301899,-0.00375458,-0.0117876,0.0834597
0.00421036,0.00432207,-0.0148413,0.0653546
0.00449694,0.0063904,-0.0155616,0.0836364
0.00470089,-0.000857749,-0.00795773,0.0650582
0.00484445,-0.000931923,-0.00790913,0.0833427
0.00492967,-0.000652182,-0.0080281,0.0620824
0.00489723,-0.000656683,-0.00800441,0.041246
0.00482239,-0.0006245,-0.00801456,0.0208245
0.0047287,-0.000543317,-0.00794682,0.000804959
0.00463385,-0.000466369,-0.0078256,-0.01882
0.00455107,-0.000449436,-0.00764789,-0.0380608
0.00446976,-0.000443731,-0.00739133,-0.0177096
0.00438417,-0.00037666,-0.00717682,0.00224242
0.00429907,-0.00040144,-0.00716281,-0.0174103
0.00420795,-0.000437849,-0.00722559,-0.0366785
0.00411512,-0.000537217,-0.00702889,-0.0163537
0.00403045,-0.000514601,-0.00688544,-0.0356423
0.00394113,-0.000451345,-0.00675303,-0.0545527
0.00383215,-0.000362946,-0.00661413,-0.0338778
0.00374967,-0.000378007,-0.00654103,-0.0528239
0.00367509,-0.000418046,-0.00650652,-0.0713974
0.00361335,-0.00034026,-0.00628294,-0.0503913
0.00354364,-0.000489237,-0.00615181,-0.0690108
0.00346958,-0.000400368,-0.00604047,-0.0480518
0.00339434,-0.000374277,-0.00575128,-0.027504
0.00334024,-0.000499845,-0.00557093,-0.0073572
0.00327921,-0.000524172,-0.00530939,0.0123942
0.00321362,-0.000635465,-0.00539557,-0.00745695
0.00314979,-0.000575134,-0.0052128,0.012295
0.00308812,-0.000475542,-0.0051023,0.0316591
0.00303341,-0.000517863,-0.00485618,0.0506428
0.00296857,-0.000525428,-0.0046866,0.0692563
0.00291372,-0.000469185,-0.00468784,0.0875038
0.00284716,-0.000406587,-0.00461785,0.105394
0.0028119,-0.000436535,-0.00464451,0.0837189
0.00275741,-0.000372248,-0.00463594,0.0624679
0.00270414,-0.000300203,-0.00460842,0.0416334
0.00266051,-0.000219382,-0.00451998,0.021208
0.00260449,-0.000256491,-0.00435421,0.0403979
0.00255657,-0.000233851,-0.00431166,0.0592123
0.00249834,-0.000202961,-0.00421512,0.0776579
0.00244418,-0.000131575,-0.00412321,0.0957415
0.00236411,-8.42904e-05,-0.00409196,0.11347
0.00232764,-0.000149055,-0.00392224,0.130851
0.00225948,-0.000166105,-0.00367485,0.147892
0.00219648,-0.000171453,-0.00360953,0.125383
0.00213218,-0.000118518,-0.0035374,0.142532
0.0020873,-0.000116994,-0.00351329,0.120128
0.00202691,-0.000120393,-0.00363118,0.0981641
0.00198365,-0.000133575,-0.00367189,0.0766309
0.00193894,-5.69104e-05,-0.00370599,0.0555192
0.00191858,-1.02858e-05,-0.0037067,0.0348221
0.0018779,-7.47081e-05,-0.0035014,0.0537454
0.00184322,-7.10377e-05,-0.00331718,0.0722986
0.00179093,2.17819e-05,-0.00320137,0.0904881
0.00176638,3.56238e-05,-0.0032102,0.108321
0.001749,6.32252e-05,-0.00317008,0.0865881
0.0017171,1.28156e-05,-0.00304694,0.104497
0.00167533,2.1214e-05,-0.00299061,0.0828393
0.00163551,2.86541e-05,-0.0028722,0.100821
0.00159497,1.05302e-05,-0.00300822,0.0792358
0.00157381,-8.7132e-05,-0.00292693,0.0580735
0.00155279,-1.70645e-06,-0.00279552,0.0765415
0.00149766,-4.70581e-05,-0.00287808,0.0554326
0.00146954,-0.000134938,-0.00295506,0.0347375
0.00143894,-0.00018458,-0.00302393,0.0144474
0.00141118,-0.00029117,-0.00305813,-0.00544433
0.00138456,-0.000388311,-0.00316736,-0.0249455
0.00135222,-0.000405724,-0.0032127,-0.0440647
0.001331,-0.000488297,-0.00304223,-0.0235942
0.00130263,-0.000388413,-0.00295271,-0.00352432
0.0012783,-0.000423918,-0.00297632,0.016151
0.00125483,-0.000518682,-0.00295894,-0.00377419
0.00123044,-0.000626483,-0.00283837,0.0159063
0.00120397,-0.00122344,-0.0026699,0.0351919
0.00113694,-0.00184256,-0.00272897,0.0540992
0.000990317,-0.00178358,-0.00271453,0.0334324
0.000825874,-0.00209714,-0.00232542,0.0523827
0.000483523,-0.00125424,-0.00227343,0.0317696
0.000231366,-0.00151263,-0.00178144,0.011549
0.000114535,-0.00244259,-0.00170962,0.0309104
-0.000242782,-0.00276535,-0.00142393,0.0107028
-0.000350842,-0.00371239,-0.00144923,0.0300699
-0.000701263,-0.00477468,-0.00123313,0.0098811
-0.000805722,-0.0052189,-0.00158676,-0.00992616
-0.000657177,-0.00655584,-0.0014392,-0.0293054
-0.000343922,-0.00557645,-0.000871964,-0.00916247
-0.000272109,-0.00448449,-0.000144406,0.0105801
-0.000321346,-0.00465632,8.53221e-05,0.0299742
-0.000377896,-0.00465044,0.0005359,0.0489863
-0.000412828,-0.00479014,0.00056579,0.067637
-0.000445438,-0.00469268,0.000678712,0.0859241
-0.000519667,-0.00463077,0.000642142,0.103856
-0.000602041,-0.00569394,0.000371739,0.0822509
-0.000621298,-0.00592558,0.000489738,0.10023
-0.000629281,-0.00609664,0.000445831,0.117865
-0.000627795,-0.00602838,0.000252775,0.0959455
-0.000616073,-0.00590719,0.000326813,0.113672
-0.000520823,-0.00609543,0.000510214,0.0918408
-0.000481759,-0.00628646,0.000780591,0.109641
-0.000404414,-0.00617007,0.000795077,0.0878826
-0.000368772,-0.00620891,0.000757749,0.105767
-0.000334417,-0.00609114,0.000767447,0.0840851
-0.000327139,-0.00615382,0.000703067,0.102044
-0.000301216,-0.0061764,0.0007007,0.11965
-0.000315324,-0.00595562,0.000546817,0.0976973
-0.000287538,-0.00596486,0.000537962,0.115389
-0.00027414,-0.00580132,0.000449902,0.132736
-0.000267781,-0.0056686,0.000462522,0.110526
-0.000282336,-0.00554526,0.000376925,0.127967
-0.000275017,-0.00543412,0.000361751,0.10585
-0.000286602,-0.00542285,0.000287537,0.123383
-0.000247884,-0.00543653,0.000227394,0.140572
-0.000279881,-0.00529535,0.00010718,0.118208
-0.000266923,-0.00523086,0.000140703,0.0962818
-0.000277171,-0.00504605,8.80348e-05,0.114002
-0.000248787,-0.00485782,8.63951e-05,0.0921591
-0.000222307,-0.00470231,0.000102884,0.0707437
-0.000218532,-0.00474554,7.19273e-05,0.0889649
-0.000195578,-0.00471816,-3.82806e-05,0.106828
-0.00019393,-0.0045764,-2.31438e-05,0.0851264
-0.000187201,-0.00462831,4.65159e-05,0.103064
-0.00018143,-0.00447216,-3.19179e-05,0.0814345
-0.000178492,-0.00432749,-7.22969e-05,0.0602296
-0.000188935,-0.00419935,-0.000161119,0.0394416
-0.000198752,-0.00408446,-0.000218318,0.0582753
-0.000228778,-0.00413717,-0.000132187,0.07674
-0.000243329,-0.0040668,-0.000244629,0.0556277
-0.000249504,-0.00390195,-0.000246652,0.0349299
-0.000248317,-0.00381601,-0.000257296,0.0146361
-0.000245601,-0.00369721,-0.00024948,-0.00525831
-0.000242361,-0.00355969,-0.000267851,0.014453
-0.000237659,-0.00338881,-0.000266935,-0.00543653
-0.00023514,-0.00329141,-0.000251653,-0.0249367
-0.000229597,-0.00323472,-0.000223116,-0.0440546
-0.00024013,-0.00310832,-0.000208754,-0.0627986
-0.000238617,-0.00317523,-0.000243312,-0.0419599
-0.000223833,-0.00321363,-0.000222073,-0.0215295
-0.000224287,-0.00326256,-0.000155523,-0.00149988
-0.000220974,-0.00313315,-0.000110043,-0.0210776
-0.000221329,-0.00321358,-0.000115938,-0.0010576
-0.000217786,-0.00326693,-0.000239768,0.0185699
-0.000212207,-0.0031212,-0.000200354,-0.00140239
-0.000208786,-0.00319621,-0.00018593,-0.020982
-0.000205764,-0.00308165,-0.000234435,-0.000962965
-0.000202488,-0.00296065,-0.000238316,-0.0205516
-0.000199126,-0.00288522,-0.000206915,-0.000541314
-0.000196662,-0.00294512,-0.000253285,0.0190772
-0.000190639,-0.00286513,-0.000310497,0.0383107
-0.00019274,-0.00294479,-0.000332611,0.0571674
-0.000181375,-0.0028173,-0.000326182,0.0364384
-0.000179729,-0.00271832,-0.000388241,0.0161163
-0.000175303,-0.00278772,-0.000492889,0.0354065
-0.000181449,-0.00286249,-0.000483111,0.0543195
-0.000174824,-0.002869,-0.000403527,0.072861
-0.00019665,-0.00280488,-0.000415661,0.0910401
-0.000192735,-0.00277968,-0.00035384,0.108863
-0.000158732,-0.00267706,-0.000345855,0.0871201
-0.000144346,-0.00262563,-0.000472808,0.10502
-0.00013374,-0.00273849,-0.000548568,0.122567
-0.000136335,-0.0026482,-0.000539683,0.139771
-0.000114799,-0.00271667,-0.000577892,0.156638
-0.000112446,-0.00266413,-0.000631427,0.173175
-8.3276e-05,-0.0025815,-0.000568264,0.189386
-7.42135e-05,-0.00247672,-0.000590377,0.205281
-2.32547e-05,-0.00239692,-0.000643,0.181648
-2.08242e-05,-0.00229009,-0.000742921,0.158478
6.69894e-06,-0.00238126,-0.000761283,0.174978
9.39365e-06,-0.00241798,-0.000805583,0.191155
4.48302e-06,-0.00235752,-0.000859523,0.207014
-4.48155e-06,-0.00227594,-0.000839902,0.222563
7.03085e-05,-0.00213818,-0.00091725,0.198591
5.02658e-05,-0.00220303,-0.000902578,0.214305
6.61733e-05,-0.00228708,-0.000786347,0.229709
5.11205e-06,-0.00220044,-0.000853076,0.205597
-5.5976e-05,-0.0021807,-0.000922927,0.221173
-0.000147743,-0.00226648,-0.00109356,0.236443
-0.000274007,-0.0021822,-0.00123031,0.251415
-0.000321774,-0.00204855,-0.00137134,0.226877
-0.000375576,-0.0020776,-0.00143685,0.242035
-0.000383636,-0.00207683,-0.00157196,0.256897
-0.000413852,-0.00197321,-0.00169025,0.232251
-0.000394727,-0.00190177,-0.00166964,0.208089
-0.000450435,-0.00176818,-0.00168731,0.184401
-0.00041814,-0.00166235,-0.00162838,0.161177
-0.000442364,-0.00151593,-0.00167957,0.138409
-0.000397793,-0.00144823,-0.00164718,0.116087
-0.000406111,-0.00132262,-0.00165966,0.133418
-0.000376248,-0.00125311,-0.00155709,0.111194
-0.000377929,-0.00114069,-0.0015158,0.0894055
-0.000339272,-0.00106102,-0.00152904,0.0680447
-0.000311712,-0.000998699,-0.00150582,0.0471025
-0.000298462,-0.00100455,-0.00153333,0.0265706
-0.000298485,-0.000960285,-0.00147756,0.00644109
-0.000293213,-0.000896275,-0.0015203,-0.0132935
-0.000284174,-0.000869432,-0.0013312,-0.0326408
-0.000275058,-0.000832806,-0.00125771,-0.0123935
-0.000269065,-0.000957128,-0.001258,0.00745633
-0.000264678,-0.000995961,-0.00132039,0.0269172
-0.00025681,-0.000924532,-0.00133735,0.0067815
-0.000253706,-0.000858768,-0.00129904,-0.0129596
-0.000246932,-0.00100717,-0.00121365,0.0069013
-0.000244315,-0.00091861,-0.00119693,-0.0128418
-0.000239506,-0.000880524,-0.00120876,-0.0321981
-0.000230312,-0.00088393,-0.00109719,-0.0119595
-0.000224465,-0.000775126,-0.00106417,0.00788223
-0.000218602,-0.000791908,-0.00113868,0.0273351
-0.000208199,-0.000893513,-0.00102446,0.0464063
-0.000203182,-0.00107055,-0.000974319,0.0651029
-0.0001881,-0.00103447,-0.000899786,0.0834337
-0.00018249,-0.000950662,-0.000936684,0.0621897
-0.000163171,-0.000935802,-0.000833391,0.0413626
-0.000168695,-0.00089553,-0.000847085,0.0209435
-0.000168756,-0.000807141,-0.000800793,0.000925058
-0.000166167,-0.000777039,-0.000818241,-0.018701
-0.00016472,-0.000678889,-0.0007441,-0.0379421
-0.000165751,-0.000626519,-0.000675502,-0.056806
-0.000181106,-0.000728438,-0.000609023,-0.0360846
-0.000190132,-0.000819862,-0.000590497,-0.0549847
-0.000184424,-0.00079916,-0.00047134,-0.0735143
-0.000183501,-0.000732284,-0.000419922,-0.0916809
-0.000191097,-0.00102632,-0.000165294,-0.0702791
-0.000214768,-0.000918461,-6.94105e-05,-0.0885088
-0.000215408,-0.000992852,-0.000129993,-0.0671662
-0.000211552,-0.000896581,-0.00015317,-0.0854575
-0.000213524,-0.000811923,-0.000141451,-0.0641742
-0.000222624,-0.000835543,-2.60939e-05,-0.0433087
-0.000223736,-0.000788301,-4.69516e-06,-0.0620674
-0.000228328,-0.00083411,-9.76838e-05,-0.0804583
-0.000233021,-0.0010398,3.60787e-05,-0.0592774
-0.000237891,-0.00108166,0.000299123,-0.0385105
-0.000232733,-0.00114939,0.000604689,-0.0181519
-0.000233787,-0.00151743,0.00100032,0.00180123
-0.000223849,-0.00158928,0.000593281,-0.0178402
-0.000215669,-0.00173544,0.00131738,0.0020966
-0.000200274,-0.00127525,0.00262297,0.0216097
-0.000176795,-0.000594974,0.00455821,0.0406801
-0.000143995,-0.000794044,0.00279154,0.0203431
-0.000126344,-0.00127787,0.000337939,0.000491807
-0.000107979,-0.000259878,0.00350179,0.0198103
-8.60737e-05,-0.000394084,-0.000507386,0.000223449
-7.96253e-05,-0.000750787,-0.00485636,-0.0188875
-9.95767e-05,-0.00100858,0.000333829,0.000411702
-8.22973e-05,0.00123122,0.00462868,0.0194023
-6.44115e-05,0.000518899,0.0107694,0.0376219
7.24357e-06,-0.000540307,0.00394122,0.0185158
4.77986e-05,-0.00205121,-0.00408445,0.000373939
6.79267e-05,-0.00311389,0.00365207,0.0184622
0.000137075,-4.7795e-05,0.0139522,0.0346227
0.00018689,-0.000730856,0.00397759,0.0170343
0.000201076,-0.00101458,0.0155094,0.0326359
0.000229634,-0.00150231,0.00354806,0.0163931
0.000246571,-0.00344506,-0.0089141,0.00116969
0.000267816,-0.00417336,-0.0223243,-0.0128282
0.000263833,-0.00635631,-0.0354824,-0.0264039
0.000270776,-0.00701657,-0.0489488,-0.0393355
0.000313764,-0.00770317,-0.0625327,-0.0516325
0.000344097,-0.00909017,-0.0760265,-0.0634426
0.00036456,-0.0100694,-0.0894523,-0.0748487
0.000355388,-0.0120363,-0.102557,-0.0859848
0.000407545,-0.0139881,-0.115185,-0.0971557
0.000465187,-0.0165205,-0.127091,-0.108531
0.000631925,-0.0183836,-0.138463,-0.120121
0.00066567,-0.0203304,-0.14923,-0.131893
0.000589803,-0.0198304,-0.131745,-0.116253
0.0004552,-0.022056,-0.1416,-0.129121
0.000356358,-0.0236145,-0.150198,-0.142814
0.000125598,-0.0242729,-0.157605,-0.157184
-6.98011e-05,-0.0242189,-0.164367,-0.171704
-0.000147893,-0.0249766,-0.169774,-0.186776
-0.000296622,-0.0249612,-0.174184,-0.202133
-0.000896438,-0.0262291,-0.177178,-0.217885
-0.00100272,-0.0263903,-0.178942,-0.233895
-0.000962062,-0.0239565,-0.163377,-0.214478
-0.000773418,-0.0238884,-0.164144,-0.231014
-0.000620337,-0.0238489,-0.16421,-0.247419
-0.000318697,-0.0235303,-0.162836,-0.264009
8.13977e-05,-0.0229201,-0.160133,-0.280471
5.11088e-05,-0.0233816,-0.15746,-0.296481
0.000358429,-0.0233734,-0.154057,-0.312173
0.000817112,-0.021569,-0.143298,-0.288897
0.00142015,-0.0195697,-0.134012,-0.265623
0.00193393,-0.0186368,-0.125944,-0.242671
0.00271329,-0.0170841,-0.118606,-0.220098
0.00315923,-0.0159338,-0.11542,-0.2367
0.00333301,-0.0143825,-0.109311,-0.213655
0.00344598,-0.0134065,-0.104373,-0.190928
0.00339573,-0.0128439,-0.0997182,-0.168596
0.00341069,-0.0129016,-0.0965225,-0.185865
0.00264741,-0.0138139,-0.0928794,-0.202564
0.00232335,-0.0141351,-0.0899108,-0.218589
0.00228128,-0.0142195,-0.0875356,-0.234059
0.00218742,-0.0141447,-0.0852712,-0.249198
0.00189353,-0.0145801,-0.0835913,-0.22478
0.00172263,-0.0147045,-0.0821171,-0.239931
0.00165629,-0.0143566,-0.0806265,-0.254787
0.00171033,-0.0141572,-0.0791767,-0.230184
0.00168755,-0.0137794,-0.0776739,-0.206074
0.00168936,-0.0135316,-0.0762497,-0.182432
0.00166367,-0.0132352,-0.074649,-0.159262
0.00159529,-0.0130892,-0.0730975,-0.175763
0.00155093,-0.0129543,-0.0717219,-0.191948
0.00149083,-0.012693,-0.0702849,-0.168593
0.00145772,-0.0125005,-0.0687644,-0.184917
0.0014406,-0.0122725,-0.0672245,-0.20091
0.00139696,-0.0120648,-0.0656646,-0.216596
0.00135629,-0.0119847,-0.0644485,-0.231977
0.00137409,-0.0118514,-0.0631964,-0.207848
0.00137094,-0.0117974,-0.0618053,-0.223401
0.00132799,-0.01158,-0.060494,-0.199436
0.0012558,-0.0112739,-0.0593204,-0.175927
0.0012081,-0.0111114,-0.0580167,-0.192104
0.00116128,-0.010949,-0.0567154,-0.207961
0.00115959,-0.0108591,-0.0554085,-0.22351
0.00113689,-0.0106275,-0.0543446,-0.199524
0.00112543,-0.0105073,-0.0531172,-0.215233
0.00109381,-0.010213,-0.0520324,-0.191408
0.00111095,-0.0100539,-0.0508338,-0.207276
0.00109167,-0.0100691,-0.0496856,-0.222832
0.00106624,-0.00990684,-0.0488775,-0.198849
0.0010632,-0.00980846,-0.0477548,-0.214564
0.00101856,-0.00972807,-0.0467459,-0.229972
0.00104051,-0.00970536,-0.0457137,-0.245078
0.001046,-0.00940708,-0.0447576,-0.259892
0.00107927,-0.00931181,-0.0438974,-0.235198
0.00103762,-0.00915545,-0.0428636,-0.250195
0.00103108,-0.00890999,-0.0420302,-0.225694
0.00100041,-0.00875581,-0.0412332,-0.201667
0.000990638,-0.00875614,-0.0403581,-0.21733
0.000918313,-0.00844144,-0.0395726,-0.193471
0.00092133,-0.00848946,-0.0385748,-0.2093
0.000905531,-0.00833119,-0.0376767,-0.224814
0.000931499,-0.00817649,-0.0369765,-0.200818
0.000878943,-0.00801169,-0.03619,-0.177278
0.000887451,-0.00795433,-0.0353036,-0.193415
0.000869022,-0.00789797,-0.0344594,-0.209233
0.000869589,-0.00776396,-0.0336306,-0.224754
0.000867377,-0.007656,-0.0330448,-0.239962
0.000877386,-0.00767828,-0.0321372,-0.254874
0.000914877,-0.0074327,-0.0312466,-0.230294
0.000886675,-0.00731362,-0.0304254,-0.245401
0.000889093,-0.00731418,-0.0296568,-0.260208
0.000845785,-0.00712734,-0.0289216,-0.27472
0.000814989,-0.00698396,-0.0283734,-0.24973
0.000742694,-0.00688146,-0.027706,-0.264444
0.000708575,-0.00682939,-0.0272105,-0.239659
0.000638613,-0.00665947,-0.0266626,-0.215356
0.000679766,-0.00661717,-0.0259199,-0.230746
0.000703915,-0.00663061,-0.0253795,-0.245832
0.000774473,-0.00665999,-0.0246575,-0.260624
0.00076169,-0.00656695,-0.0240282,-0.275125
0.000828407,-0.00652537,-0.0235158,-0.250127
0.000768759,-0.00636334,-0.0229747,-0.264833
0.000737151,-0.00624266,-0.0225198,-0.240037
0.000712088,-0.00612045,-0.0222235,-0.215725
0.000732146,-0.00613784,-0.0216627,-0.231108
0.000757271,-0.00609564,-0.0212571,-0.246185
0.000746745,-0.00595533,-0.0208015,-0.221754
0.000696409,-0.00581527,-0.0204338,-0.237015
0.000645572,-0.00573115,-0.0199809,-0.251973
0.000593394,-0.00560596,-0.0196003,-0.227427
0.000572101,-0.00553689,-0.0191182,-0.242578
0.000559553,-0.00550957,-0.0185291,-0.257433
0.00051959,-0.00527955,-0.0181311,-0.232781
0.00049069,-0.00518133,-0.0178977,-0.208613
0.000417416,-0.00515331,-0.0175238,-0.224129
0.000370105,-0.00501626,-0.0171156,-0.239345
0.000373615,-0.00484733,-0.0166254,-0.254265
0.000349427,-0.00474478,-0.0163627,-0.229681
0.000294401,-0.00454438,-0.016044,-0.205572
0.000294663,-0.00443325,-0.0154838,-0.221155
0.000247035,-0.00416456,-0.0151506,-0.197214
0.000205913,-0.00408701,-0.0147984,-0.173743
0.000134614,-0.00399062,-0.0145339,-0.150729
0.00012448,-0.00394178,-0.0142599,-0.12817
9.9441e-05,-0.00399781,-0.0138234,-0.145266
0.000100038,-0.00390406,-0.0135397,-0.122813
5.83142e-05,-0.00396672,-0.0131996,-0.140015
7.10386e-05,-0.00393473,-0.0130358,-0.117664
0.000104888,-0.00396065,-0.012562,-0.134966
0.000127478,-0.00392143,-0.0121821,-0.15193
0.000158935,-0.00377804,-0.0118982,-0.129348
0.000194738,-0.0037855,-0.0115308,-0.146421
0.000235876,-0.00377149,-0.0111455,-0.163161
0.000235013,-0.00361699,-0.0109886,-0.140355
0.000232534,-0.00353735,-0.0107428,-0.117997
0.000187379,-0.00337555,-0.0104566,-0.135293
0.000160058,-0.00338016,-0.0100727,-0.152253
0.000130161,-0.00326841,-0.00979069,-0.16888
0.000112634,-0.00319462,-0.0095379,-0.145963
7.03743e-05,-0.00313695,-0.00935034,-0.123493
4.24252e-05,-0.00307268,-0.00912064,-0.140681
-3.1043e-06,-0.0030754,-0.00900241,-0.118315
-8.61178e-06,-0.0030555,-0.00880992,-0.0963888
-1.40987e-05,-0.00310745,-0.00849101,-0.114105
6.98905e-06,-0.00310093,-0.00816259,-0.131477
1.35662e-05,-0.00307296,-0.00791413,-0.148507
4.03886e-05,-0.00303157,-0.00773782,-0.125989
7.807e-06,-0.00295038,-0.00758631,-0.10391
5.24343e-06,-0.00282759,-0.0074813,-0.0822646
8.08607e-06,-0.00270034,-0.00739381,-0.0610453
-1.32243e-07,-0.00283229,-0.00707422,-0.0794558
1.1159e-05,-0.00279653,-0.00701004,-0.0975073
-1.85077e-06,-0.00271962,-0.00687765,-0.0759882
1.97308e-05,-0.00263773,-0.006751,-0.0941087
8.7324e-06,-0.00263619,-0.00648377,-0.111872
-2.77086e-06,-0.00252152,-0.006393,-0.0900732
-2.44576e-05,-0.00244345,-0.00629137,-0.0687005
-1.49415e-05,-0.00239202,-0.00619979,-0.0477478
-1.69682e-05,-0.00237139,-0.00592737,-0.0664196
-1.028e-05,-0.00232712,-0.0057311,-0.0847264
-3.10727e-06,-0.00242951,-0.00564971,-0.102674
3.97248e-05,-0.00255226,-0.00549876,-0.120269
3.95721e-05,-0.00250618,-0.00549307,-0.0983027
6.15103e-05,-0.00243435,-0.00537691,-0.0767685
6.05724e-05,-0.00249867,-0.00514472,-0.0948711
6.59444e-05,-0.00250305,-0.00489397,-0.112619
5.57206e-05,-0.00242188,-0.00483813,-0.0908033
5.56199e-05,-0.00248609,-0.00476031,-0.108631
2.70509e-05,-0.00237907,-0.00472161,-0.0868926
-8.68566e-06,-0.00245325,-0.0045897,-0.104796
-1.36389e-06,-0.00248119,-0.00436381,-0.122349
-1.68472e-05,-0.00241326,-0.00428216,-0.139558
8.48778e-06,-0.00232704,-0.00417802,-0.15643
-6.56795e-06,-0.00225409,-0.00400635,-0.172972
2.86314e-05,-0.00224883,-0.00378495,-0.18919
4.86246e-05,-0.00220559,-0.00380842,-0.165873
6.69998e-05,-0.00220717,-0.00375788,-0.143014
4.55204e-05,-0.00210081,-0.00363118,-0.120604
5.80176e-05,-0.00208868,-0.00342187,-0.137848
4.65281e-05,-0.00203817,-0.00311555,-0.154754
4.68977e-05,-0.00207468,-0.00288525,-0.171329
6.1621e-05,-0.00218412,-0.00280451,-0.187578
8.96448e-05,-0.00223642,-0.00256469,-0.203508
9.21754e-05,-0.00206686,-0.00250933,-0.17991
0.000105254,-0.00202327,-0.00230338,-0.195991
5.00926e-05,-0.00199541,-0.00211243,-0.211756
4.16606e-05,-0.00201158,-0.00210249,-0.187997
2.09908e-05,-0.00187638,-0.00206705,-0.164704
2.95904e-05,-0.00194966,-0.00191855,-0.181082
3.54606e-05,-0.00194711,-0.00168983,-0.197139
-4.48635e-07,-0.00201628,-0.00149305,-0.212881
1.74885e-05,-0.00205084,-0.00129634,-0.228314
3.60381e-05,-0.00199702,-0.001234,-0.20423
1.73907e-05,-0.00195146,-0.00115687,-0.180617
-2.37263e-05,-0.00179653,-0.00111573,-0.157469
-1.23664e-05,-0.00177538,-0.000939421,-0.173989
-5.08523e-05,-0.0017699,-0.000755328,-0.190185
-3.09785e-05,-0.0016534,-0.000606392,-0.206064
-2.62272e-05,-0.00173643,-0.000465496,-0.221631
1.17334e-05,-0.00173439,-0.000267481,-0.236893
1.91277e-05,-0.00177011,-0.000240626,-0.251856
3.02667e-05,-0.00177473,-1.51003e-05,-0.266525
-3.51704e-05,-0.00177873,0.000127569,-0.280906
-5.54445e-05,-0.00180748,-5.98139e-06,-0.255791
-0.000191261,-0.00183698,0.000108662,-0.270383
-0.00021976,-0.00183489,0.0001813,-0.245473
-0.000166704,-0.00187924,0.000360528,-0.260267
-8.33504e-05,-0.00189897,0.000598507,-0.274771
-2.72384e-05,-0.00179181,0.000713517,-0.288991
-2.92242e-05,-0.00156969,0.000731459,-0.263717
2.4972e-05,-0.00153096,0.000668499,-0.238939
4.76636e-05,-0.00150446,0.000824808,-0.253861
0.000119446,-0.00163075,0.000838596,-0.229276
0.000135275,-0.00157659,0.000993522,-0.244388
0.000213936,-0.0015305,0.00105969,-0.259203
